"circunscripcion";"mediador";"año_mes";"nro_om";"caratula";"tproc";"fiscalia";"fiscm";"fecha_realizacion_aud";"resultado_audiencia"
"Gualeguay";"AHIBE ANALÍA";"2020-12";"29060-M";"LUCERO CARLOS RAUL";"DENUNCIA";"fis:$com:$mag:$def:";;2020-12-28;"Con Acuerdo"
"Tala";"GABRIELA ALEJANDRA URRELS";"2020-12";"1010";"SOSA KAREN AYELEN";"SU DENUNCIA";"fis:$com:$mag:$def:";;2020-12-22;"Con Acuerdo"
"Nogoyá";"MARIA BEATRIZ VIGNOLO";"2020-11";"991/20";"AMARILLO MARIA VICTORIA";"SU DENUNCIA";"fis:$com:$mag:$def:";;2020-11-19;"Con Acuerdo"
"Nogoyá";"MARIA BEATRIZ VIGNOLO";"2020-11";"1049/20";"ACOSTA MELISA";"LESIONES LEVES";"fis:$com:$mag:$def:";;2020-11-12;"Con Acuerdo"
"Nogoyá";"MARIA BEATRIZ VIGNOLO";"2020-11";"909/20";"ALVAREZ EZEQUIEL";"LESIONES LEVES";"fis:$com:$mag:$def:";;2020-11-30;"Con Acuerdo"
"Nogoyá";"MARIA BEATRIZ VIGNOLO";"2020-11";"1046/20";"AQUINO VERONICA  CLAUDIA Y OTRAS";"DAÑO";"fis:$com:$mag:$def:";;2020-11-03;"Con Acuerdo"
"Nogoyá";"MARIA BEATRIZ VIGNOLO";"2020-11";"904/20";"BERON LORENA";"LESIONES";"fis:$com:$mag:$def:";;2020-11-24;"Con Acuerdo"
"Nogoyá";"MARIA BEATRIZ VIGNOLO";"2020-11";"1202/20";"CAIMER MARIA MARCELA";"SU DENUNCIA";"fis:NOGOYA - FISCALIA$com:$mag:$def:";;2020-11-19;"Con Acuerdo"
"Nogoyá";"MARIA BEATRIZ VIGNOLO";"2020-11";"1221/20";"CARDOZO MARCELO";"LESIONES";"fis:$com:$mag:$def:";;2020-11-30;"Con Acuerdo"
"Nogoyá";"MARIA BEATRIZ VIGNOLO";"2020-11";"1220/20";"COMAS ERNESTO RAMON";"DAÑOS";"fis:$com:$mag:$def:";;2020-11-17;"Con Acuerdo"
"Nogoyá";"MARIA BEATRIZ VIGNOLO";"2020-11";"1136/20";"TABARES SANTIAGO";"SU DENUNCIA";"fis:$com:$mag:$def:";;2020-11-25;"Con Acuerdo"
"Nogoyá";"MARIA BEATRIZ VIGNOLO";"2020-11";"985/20";"COMBA MARIA JOSE";"SU DENUNCIA";"fis:$com:$mag:$def:";;2020-11-10;"Con Acuerdo"
"Nogoyá";"MARIA BEATRIZ VIGNOLO";"2020-11";"828/20";"ÇSANZBERRO MARIA SOL";"LESIONES GRAVES";"fis:$com:$mag:$def:";;2020-11-18;"Con Acuerdo"
"Nogoyá";"MARIA BEATRIZ VIGNOLO";"2020-11";"1472/19";"DE OFICIO PARA DETERMINAR OCUPACIÓN ILEGÍTIMA DE ESPACIOS PÚBLICOS EN XX DE SETIEMBRE";"ACTUACIONES DE OFICIO";"fis:$com:$mag:$def:";;2020-11-30;"Con Acuerdo"
"Nogoyá";"MARIA BEATRIZ VIGNOLO";"2020-11";"1085/20";"GAGIOLI MARIA ROSA";"SU DENUNCIA";"fis:$com:$mag:$def:";;2020-11-06;"Con Acuerdo"
"Nogoyá";"MARIA BEATRIZ VIGNOLO";"2020-11";"1137/20";"GONZALEZ LEANDRO EMMANUEL";"DAÑO";"fis:$com:$mag:$def:";;2020-11-12;"Con Acuerdo"
"Nogoyá";"MARIA BEATRIZ VIGNOLO";"2020-11";"994/20";"IBALO ESTEBAN IVÁN";"LESIONES";"fis:$com:$mag:$def:";;2020-11-30;"Con Acuerdo"
"Nogoyá";"MARIA BEATRIZ VIGNOLO";"2020-11";"1091/19";"MARTINEZ FELIX ROBERTO";"REDUCCION A LA SERVIDUMBRE";"fis:$com:NOGOYA - FISCALIA$mag:$def:";;2020-11-30;"Con Acuerdo"
"Nogoyá";"MARIA BEATRIZ VIGNOLO";"2020-11";"1001/20";"MARTINEZ MARÍA CARLA";"DENUNCIA";"fis:$com:$mag:$def:";;2020-11-03;"Con Acuerdo"
"Nogoyá";"MARIA BEATRIZ VIGNOLO";"2020-11";"1117/20";"MINAGLIA JORGE GABRIEL";"SU DENUNCIA";"fis:$com:$mag:$def:";"4";2020-11-09;"Con Acuerdo"
"Nogoyá";"MARIA BEATRIZ VIGNOLO";"2020-11";"1148/20";"MOREYRA JORGE DEMETRIO";"SU DENUNCIA";"fis:$com:$mag:$def:";;2020-11-17;"Con Acuerdo"
"Nogoyá";"MARIA BEATRIZ VIGNOLO";"2020-11";"888/20";"MOREYRA JORGE DEMETRIO";"ABIGEATO";"fis:$com:$mag:$def:";;2020-11-30;"Con Acuerdo"
"Nogoyá";"MARIA BEATRIZ VIGNOLO";"2020-11";"1176/20";"ORIS GUILLERMO RAUL";"SU DENUNCIA";"fis:$com:$mag:$def:";;2020-11-10;"Con Acuerdo"
"Nogoyá";"MARIA BEATRIZ VIGNOLO";"2020-11";"1240/20";"PEREYRA RAMON";"AMENAZAS";"fis:$com:$mag:$def:";;2020-11-30;"Con Acuerdo"
"Nogoyá";"MARIA BEATRIZ VIGNOLO";"2020-11";"618/20";"ROMERO JONATHAN MAXIMILIANO NAHUEL";"LESIONES";"fis:$com:$mag:$def:";;2020-11-20;"Con Acuerdo"
"Nogoyá";"MARIA BEATRIZ VIGNOLO";"2020-11";"1093/20";"SRA. DEFENSORA AUXILIAR MARIA ANDREA CAVAGNA";"SU PRESENTACION";"fis:NOGOYA - DEFENSORIA$com:$mag:$def:";;2020-11-11;"Con Acuerdo"
"La Paz";"ARIEL MILLAN";"2020-11";"F16662";"ALMADA María Jose";"AMENAZAS";"fis:1-FISCALIA Nº1-$com:Jefatura Departamental La Paz$mag:$def:";;2020-11-09;"Con Acuerdo"
"La Paz";"ARIEL MILLAN";"2020-11";"F15461 -16190";"CABRAL Cristian Ramon";"DAÑO";"fis:$com:$mag:$def:";;2020-11-03;"Con Acuerdo"
"La Paz";"ARIEL MILLAN";"2020-11";"F15461 -16190";"CABRAL Cristian Ramon";"DAÑO";"fis:$com:$mag:$def:";;2020-11-03;"Con Acuerdo"
"La Paz";"ARIEL MILLAN";"2020-11";"F16474";"CARDOZO Deolinda";"AMENAZAS";"fis:$com:$mag:$def:";;2020-11-03;"Con Acuerdo"
"La Paz";"ARIEL MILLAN";"2020-11";"F16474";"CARDOZO Deolinda";"AMENAZAS";"fis:$com:$mag:$def:";;2020-11-03;"Con Acuerdo"
"La Paz";"ARIEL MILLAN";"2020-11";"F 16652 - 16653";"PIEDRABUENA Maria Yanina - PEREZ Stella Maris";"AMENAZAS";"fis:$com:$mag:$def:";;2020-11-12;"Con Acuerdo"
"Villaguay";"ANDREA BONIFACINO";"2020-11";"17565M";"ALTAMIRANO ADRIANA ITATI";"SU DENUNCIA";"fis:$com:$mag:$def:";;2020-11-11;"Con Acuerdo"
"Villaguay";"ANDREA BONIFACINO";"2020-11";"17909M";"AVILA GERARDO RAFAEL";"SU DENUNCIA";"fis:$com:$mag:$def:";;2020-11-30;"Con Acuerdo"
"Villaguay";"ANDREA BONIFACINO";"2020-11";"18022M";"BARRETO MARIA LOURDES";"SU DENUNCIA";"fis:$com:$mag:$def:";;2020-11-12;"Con Acuerdo"
"Villaguay";"ANDREA BONIFACINO";"2020-11";"18122M";"BARRIOS CARLOS MANUEL";"SU DENUNCIA";"fis:$com:$mag:$def:";;2020-11-26;"Con Acuerdo"
"Villaguay";"ANDREA BONIFACINO";"2020-11";"18024M";"CASTILLO JUAN OSCAR";"SU DENUNCIA";"fis:$com:$mag:$def:";;2020-11-24;"Con Acuerdo"
"Villaguay";"ANDREA BONIFACINO";"2020-11";"16772M";"DELGADINO ALEJANDRO";"AMENAZAS";"fis:$com:$mag:$def:";;2020-11-24;"Con Acuerdo"
"Villaguay";"ANDREA BONIFACINO";"2020-11";"17770M";"DENDAU GERMAN MAXIMILIANO-GIBEL MARIA ELENA";"SU DENUNCIA";"fis:$com:$mag:$def:";;2020-11-05;"Con Acuerdo"
"Villaguay";"ANDREA BONIFACINO";"2020-11";"17770M";"DENDAU GERMAN MAXIMILIANO-GIBEL MARIA ELENA";"SU DENUNCIA";"fis:$com:$mag:$def:";;2020-11-02;"Con Acuerdo"
"Villaguay";"ANDREA BONIFACINO";"2020-11";"17665M";"DIMOTTA MARIA DELIA";"SU DENUNCIA";"fis:$com:$mag:$def:";;2020-11-02;"Con Acuerdo"
"Villaguay";"ANDREA BONIFACINO";"2020-11";"17704M";"GAITAN HECTOR RUBEN";"SU DENUNCIA";"fis:$com:$mag:$def:";;2020-11-03;"Con Acuerdo"
"Villaguay";"ANDREA BONIFACINO";"2020-11";"17641M";"HENCHOZ MARIEL SOLEDAD";"SU DENUNCIA";"fis:$com:$mag:$def:";;2020-11-12;"Con Acuerdo"
"Villaguay";"ANDREA BONIFACINO";"2020-11";"15611M";"LUGO ANA PATRICIA";"SU DENUNCIA";"fis:$com:$mag:$def:";;2020-11-17;"Con Acuerdo"
"Villaguay";"ANDREA BONIFACINO";"2020-11";"17981M";"MARTINEZ LUCAS FABIAN";"HURTO";"fis:$com:$mag:$def:";;2020-11-17;"Con Acuerdo"
"Villaguay";"ANDREA BONIFACINO";"2020-11";"17702M";"MIÑO GERARDO";"SU DENUNCIA";"fis:$com:$mag:$def:";;2020-11-10;"Con Acuerdo"
"Villaguay";"ANDREA BONIFACINO";"2020-11";"18142M";"NUÑEZ CRISPINA";"SU DENUNCIA";"fis:$com:$mag:$def:";;2020-11-30;"Con Acuerdo"
"Villaguay";"ANDREA BONIFACINO";"2020-11";"17832M";"PEREZ JOSE ISAIAS";"SU DENUNCIA";"fis:$com:$mag:$def:";;2020-11-11;"Con Acuerdo"
"Villaguay";"ANDREA BONIFACINO";"2020-11";"17764M";"PEREZ LUIS MARIA";"SU DENUNCIA";"fis:$com:$mag:$def:";;2020-11-05;"Con Acuerdo"
"Villaguay";"ANDREA BONIFACINO";"2020-11";"17775M";"SCHEFFER IVAN MIGUEL ESTEBAN-ROLDAN ROSA GRISELDA";"SU DENUNCIA";"fis:$com:$mag:$def:";;2020-11-12;"Con Acuerdo"
"Villaguay";"ANDREA BONIFACINO";"2020-11";"17607M";"VERGARA MARIA ISABEL-SANCHEZ MARIA GIULIANA";"SU DENUNCIA";"fis:$com:$mag:$def:";;2020-11-13;"Con Acuerdo"
"Villaguay";"ANDREA BONIFACINO";"2020-11";"15294M";"VERON DANIEL ALBERTO Y ANDINO EDUARDO GUILLERMO";"HURTO";"fis:$com:$mag:$def:";;2020-11-30;"Con Acuerdo"
"Villaguay";"ANDREA BONIFACINO";"2020-11";"17963M";"VILLALBA VANINA MELANIE";"SU DENUNCIA";"fis:$com:$mag:$def:";;2020-11-30;"Con Acuerdo"
"Villaguay";"ANDREA BONIFACINO";"2020-11";"18018M";"VILLAVERDE ANDREA SOLANA";"SU DENUNCIA";"fis:$com:$mag:$def:";;2020-11-26;"Con Acuerdo"
"Gualeguay";"AHIBE ANALÍA";"2020-11";"28729-M";"CARABALLO FLORENCIA JOHANA";"DENUNCIA";"fis:$com:$mag:$def:";;2020-11-09;"Con Acuerdo"
"Gualeguay";"AHIBE ANALÍA";"2020-11";"28930-M";"CISNEROS ANA MARIA";"DENUNCIA";"fis:$com:$mag:$def:";;2020-11-05;"Con Acuerdo"
"Gualeguay";"AHIBE ANALÍA";"2020-11";"28876-M";"GONZALEZ LAURA ISABEL";"DENUNCIA";"fis:$com:$mag:$def:";;2020-11-05;"Con Acuerdo"
"Gualeguay";"AHIBE ANALÍA";"2020-11";"28962-M";"OLIVERA JORGE ARIEL";"AMENAZAS";"fis:$com:$mag:$def:";;2020-11-20;"Con Acuerdo"
"Gualeguay";"AHIBE ANALÍA";"2020-11";"28871-M";"GONZALEZ RICARDO ANTONIO";"DENUNCIA";"fis:$com:$mag:$def:";;2020-11-25;"Con Acuerdo"
"Gualeguay";"AHIBE ANALÍA";"2020-11";"28961-M";"LOPEZ GUSTAVO JAVIER";"DENUNCIA";"fis:$com:$mag:$def:";;2020-11-20;"Con Acuerdo"
"Gualeguay";"AHIBE ANALÍA";"2020-11";"28862-M";"SABATIER JUAN MARTIN";"DENUNCIA";"fis:$com:$mag:$def:";;2020-11-09;"Con Acuerdo"
"Uruguay";"EDGARDO SATTO";"2020-11";"4393/20";"BARRIENTOS LORENA MALVINA";"LESIONES";"fis:$com:$mag:$def:";;2020-11-30;"Con Acuerdo"
"Uruguay";"CRISTIÁN ARIEL POETTO";"2020-11";"1771/20";"BRIZUELA, MARÍA ÁNGELA";"INFRACCION A LA LEY Nº 14.346";"fis:$com:$mag:$def:";;2020-11-09;"Con Acuerdo"
"Uruguay";"CRISTIÁN ARIEL POETTO";"2020-11";"4047/20";"CABALLIER BORDON, MIGUEL NAHUEL";"SU DENUNCIA";"fis:$com:$mag:$def:";;2020-11-12;"Con Acuerdo"
"Uruguay";"EDGARDO SATTO";"2020-11";"3321/17";"DAGLIO CRISTIAN GABRIEL";"ESTAFA";"fis:$com:$mag:$def:";;2020-11-26;"Con Acuerdo"
"Uruguay";"CRISTIÁN ARIEL POETTO";"2020-11";"89/19";"DELZART, FRANCISCO NICOLÁS";"VIOLACION DE DOMICILIO";"fis:$com:$mag:$def:";;2020-11-24;"Con Acuerdo"
"Uruguay";"CRISTIÁN ARIEL POETTO";"2020-11";"4448/20";"ENRIQUE, SONIA PATRICIA";"AMENAZAS";"fis:$com:$mag:$def:";;2020-11-18;"Con Acuerdo"
"Uruguay";"CRISTIÁN ARIEL POETTO";"2020-11";"775/20";"FLORES SOSA, MATÍAS JULIÁN";"LESIONES GRAVES";"fis:$com:$mag:$def:";;2020-11-12;"Con Acuerdo"
"Uruguay";"CRISTIÁN ARIEL POETTO";"2020-11";"3222/20";"GODOY, ROSANA VERÓNICA";"AMENAZAS";"fis:$com:$mag:$def:";;2020-11-30;"Con Acuerdo"
"Uruguay";"EDGARDO SATTO";"2020-11";"030/20";"GONZALEZ MELNYK ANA ABRIL";"INJURIAS";"fis:$com:$mag:$def:";;2020-11-20;"Con Acuerdo"
"Uruguay";"EDGARDO SATTO";"2020-11";"4153/20";"GUIRIN PAMELA - MARTINEZ DIANA SOLANGE";"LESIONES";"fis:$com:$mag:$def:";;2020-11-06;"Con Acuerdo"
"Uruguay";"CRISTIÁN ARIEL POETTO";"2020-11";"4120/20";"MIGUEZ, CARLOS ALBERTO";"AMENAZAS";"fis:$com:$mag:$def:";"POCHOLA";2020-11-09;"Con Acuerdo"
"Uruguay";"CRISTIÁN ARIEL POETTO";"2020-11";"1510/19";"PAGES, MARÍA CECILIA";"USURPACION DE TITULO";"fis:$com:$mag:$def:";;2020-11-05;"Con Acuerdo"
"Uruguay";"CRISTIÁN ARIEL POETTO";"2020-11";"4555/20";"RODRIGUEZ, SILVANA LORENA";"AMENAZAS";"fis:$com:$mag:$def:";;2020-11-30;"Con Acuerdo"
"Uruguay";"CRISTIÁN ARIEL POETTO";"2020-11";"4154/20";"SOTELO, ROBERTO ANTONIO";"ROBO AGRAVADO";"fis:$com:$mag:$def:";;2020-11-30;"Con Acuerdo"
"Uruguay";"CRISTIÁN ARIEL POETTO";"2020-11";"4055/20";"VILLALBA, VANINA VANESA";"LESIONES LEVES";"fis:$com:$mag:$def:";;2020-11-20;"Con Acuerdo"
"Victoria";"CAROLINA REGGIARDO";"2020-11";"M15106";"ACOSTA TAMARA DANIELA  - SU DENUNCIA";"LESIONES";"fis:$com:$mag:$def:";;2020-11-17;"Con Acuerdo"
"Victoria";"CAROLINA REGGIARDO";"2020-11";"M14606";"ACTUACIONES DE OFICIO POR EL SUPUESTO DELITO DE";"USURPACION";"fis:$com:$mag:$def:";;2020-11-20;"Con Acuerdo"
"Victoria";"GUSTAVO EGUIAZU";"2020-11";"M14277";"ALBORNOZ ENZO GABRIEL - SU DENUNCIA";"LESIONES";"fis:$com:$mag:$def:";;2020-11-30;"Con Acuerdo"
"Victoria";"CAROLINA REGGIARDO";"2020-11";"M14887";"CABRERA JESICA SABRINA - GARCIA NATALY";"SU DENUNCIA";"fis:$com:$mag:$def:";;2020-11-29;"Con Acuerdo"
"Victoria";"CAROLINA REGGIARDO";"2020-11";"G2672";"CORONEL ANTONIO RICARDO";"CALUMNIAS";"fis:$com:$mag:$def:";;2020-11-27;"Con Acuerdo"
"Victoria";"GUSTAVO EGUIAZU";"2020-11";"M14904";"GONZALEZ JUANA INOCENCIA - ACOSTA EZEQUIEL EDUARDO - SOSA TAMARA JEZABEL - DENUNCIAS";"AMENAZAS";"fis:$com:$mag:$def:";;2020-11-26;"Con Acuerdo"
"Paraná";"SILVANO SANTANDER";"2020-11";"110839";"BELLO MARIA ISABEL";"DAÑO";"fis:$com:$mag:$def:";"53";2020-11-18;"Con Acuerdo"
"Paraná";"MARIA CICHERO";"2020-11";"199538";"CORREA BARBARA YAMILA SU DENUNCIA";"AMENAZAS";"fis:$com:$mag:$def:";"35 AÑOS";2020-11-11;"Con Acuerdo"
"Paraná";"ANA LAURA DIAZ MINUET";"2020-11";"133690";"DEPARDON HECTOR";"TENTATIVA DE HOMICIDIO";"fis:$com:$mag:$def:";"19 AÑOS";2020-11-06;"Con Acuerdo"
"Paraná";"ANA LAURA DIAZ MINUET";"2020-11";"140651";"ESPINOSA AMIRA YAEL";"INFRACCION A LA LEY Nº 13.944 (Incump. Deberes Asistencia Fliar.)";"fis:$com:$mag:$def:";;2020-11-27;"Con Acuerdo"
"Paraná";"SILVANO SANTANDER";"2020-11";"123808";"FROSCHAUER MARTIN";"SU DENUNCIA";"fis:$com:$mag:$def:";;2020-11-13;"Con Acuerdo"
"Paraná";"VALERIA FORNARA";"2020-11";"91194";"GODOY MARIA ALEJANDRA SU DENUNCIA";"AMENAZAS";"fis:$com:$mag:$def:";"27 AÑOS";2020-11-10;"Con Acuerdo"
"Paraná";"SILVANO SANTANDER";"2020-11";"132342";"LENCINA MARIA FERNANDA SU DENUNCIA";"HURTO DE VEHICULO DEJADO EN LA VIA PUBLICA";"fis:$com:$mag:$def:";"31 AÑOS";2020-11-09;"Con Acuerdo"
"Paraná";"SILVANO SANTANDER";"2020-11";"138151";"MARCHADO GASTON ADOLFO";"SU DENUNCIA";"fis:$com:$mag:$def:";"40";2020-11-09;"Con Acuerdo"
"Paraná";"VALERIA FORNARA";"2020-11";"140663";"MAURO LUCRECIA PAULA";"SU DENUNCIA";"fis:$com:$mag:$def:";;2020-11-12;"Con Acuerdo"
"Paraná";"MARIA CICHERO";"2020-11";"144050";"MELGAR AGUILAR FRANCISCO";"SU DENUNCIA";"fis:$com:$mag:$def:";;2020-11-11;"Con Acuerdo"
"Paraná";"ANA LAURA DIAZ MINUET";"2020-11";"133851";"MONZON JUAN CRUZ";"SU DENUNCIA";"fis:$com:$mag:$def:";;2020-11-09;"Con Acuerdo"
"Paraná";"ANA LAURA DIAZ MINUET";"2020-11";"137747";"MULLOR LISANDRO SU DENUNCIA";"COACCIONES";"fis:$com:$mag:$def:";;2020-11-24;"Con Acuerdo"
"Paraná";"MARIA CICHERO";"2020-11";"143459";"OCAMPO MIRNA AYELEN";"SU DENUNCIA";"fis:$com:$mag:$def:";;2020-11-20;"Con Acuerdo"
"Paraná";"SILVANO SANTANDER";"2020-11";"110499";"PARA ESTABLECER FORMAS Y CIRCUNSTANCIAS EN LA QUE SUFRIERA LESIONES EN ACC. DE TRANSITO VILLAGRA JUAN MANUEL";"ACTUACIONES DE OFICIO";"fis:$com:$mag:$def:";"34 AÑOS";2020-11-12;"Con Acuerdo"
"Paraná";"SILVANO SANTANDER";"2020-11";"143355";"RE YOHANNA MAGALI";"INFRACCION A LA LEY Nº 24.270 (Impedimento de Contacto)";"fis:$com:$mag:$def:";"25 AÑOS";2020-11-19;"Con Acuerdo"
"Paraná";"MARIA CICHERO";"2020-11";"143727";"RODRIGUEZ SIGNES LISANDRO SU DENUNCIA EN PERJUICIO DE REDENGAS";"HURTO DE ENERGIA";"fis:$com:$mag:$def:";;2020-11-20;"Con Acuerdo"
"Paraná";"SILVANO SANTANDER";"2020-11";"132875";"SALINAS SEGUNDO SAUL";"ACTUACIONES DE OFICIO";"fis:$com:$mag:$def:";"29 AÑOS";2020-11-04;"Con Acuerdo"
"Paraná";"ANA LAURA DIAZ MINUET";"2020-11";"139615";"SCMITH CARLOS FABIAN";"SU DENUNCIA";"fis:$com:$mag:$def:";"35 AÑOS";2020-11-06;"Con Acuerdo"
"Paraná";"SILVANO SANTANDER";"2020-11";"140779";"SOSA VERÓNICA MARIA MARCELA SU DENUNCIA";"RETENCION INDEBIDA";"fis:$com:$mag:$def:";;2020-11-24;"Con Acuerdo"
"Paraná";"ANA LAURA DIAZ MINUET";"2020-11";"142951";"ULRICH LAURA ERMINDA";"SU DENUNCIA";"fis:$com:$mag:$def:";"63 AÑOS";2020-11-11;"Con Acuerdo"
"Paraná";"SILVANO SANTANDER";"2020-11";"130189";"UZIEL YURY BERNARDO";"SU DENUNCIA";"fis:$com:$mag:$def:";;2020-11-11;"Con Acuerdo"
"Paraná";"MARIA CICHERO";"2020-11";"142639";"VILLANUEVA SILVIA LORENA SU DENUNCIA";"AMENAZAS CALIFICADAS";"fis:$com:$mag:$def:";;2020-11-12;"Con Acuerdo"
"Gualeguay";"AHIBE ANALÍA";"2020-12";"29280-M";"BLANCO MARCOS JAVIER";"DENUNCIA";"fis:$com:$mag:$def:";;2020-12-18;"Con Acuerdo"
"Gualeguay";"AHIBE ANALÍA";"2020-12";"28871-M";"GONZALEZ RICARDO ANTONIO";"DENUNCIA";"fis:$com:$mag:$def:";;2020-12-14;"Con Acuerdo"
"Gualeguay";"AHIBE ANALÍA";"2020-12";"28941-M";"GARCILAZO ELIANA";"DENUNCIA";"fis:$com:$mag:$def:";;2020-12-15;"Con Acuerdo"
"Gualeguay";"AHIBE ANALÍA";"2020-12";"29080-M";"GARCILAZO ELIANA";"DENUNCIA";"fis:$com:$mag:$def:";;2020-12-15;"Con Acuerdo"
"Gualeguay";"AHIBE ANALÍA";"2020-12";"29021-M";"GARCILAZO ULISES NAHUEL";"AMENAZAS CALIFICADAS";"fis:$com:$mag:$def:";;2020-12-17;"Con Acuerdo"
"Gualeguay";"AHIBE ANALÍA";"2020-12";"24190-M";"RODRIGUEZ JAEL";"LESIONES LEVES";"fis:$com:$mag:$def:";;2020-12-14;"Con Acuerdo"
"Nogoyá";"MARIA BEATRIZ VIGNOLO";"2020-12";"1101/20";"PASERINI MARIA BELEN";"SU DENUNCIA";"fis:$com:$mag:$def:";;2020-12-10;"Con Acuerdo"
"Nogoyá";"MARIA BEATRIZ VIGNOLO";"2020-12";"1081/20";"ALVARADO PATRICIA";"AMENAZAS";"fis:$com:$mag:$def:";;2020-12-18;"Con Acuerdo"
"Nogoyá";"MARIA BEATRIZ VIGNOLO";"2020-12";"1127/20";"ARIN ROSANA CELESTE";"SU DENUNCIA";"fis:$com:$mag:$def:";;2020-12-10;"Con Acuerdo"
"Nogoyá";"MARIA BEATRIZ VIGNOLO";"2020-12";"1098/20";"ARIN VANESA NOEMI";"SU DENUNCIA";"fis:$com:$mag:$def:";;2020-12-10;"Con Acuerdo"
"Nogoyá";"MARIA BEATRIZ VIGNOLO";"2020-12";"1207/20";"GILES GONZALO";"AMENAZAS";"fis:$com:$mag:$def:";;2020-12-10;"Con Acuerdo"
"Nogoyá";"MARIA BEATRIZ VIGNOLO";"2020-12";"1339/20";"GODOY MARIA BELEN";"SU DENUNCIA";"fis:$com:$mag:$def:";;2020-12-22;"Con Acuerdo"
"Nogoyá";"MARIA BEATRIZ VIGNOLO";"2020-12";"1103/20";"GOMEZ VALENTINA - ARELLANO GLORIA ESTER";"DENUNCIAS";"fis:$com:$mag:$def:";;2020-12-11;"Con Acuerdo"
"Nogoyá";"MARIA BEATRIZ VIGNOLO";"2020-12";"1080/20";"KOCH DAIANA BELEN";"SU DENUNCIA";"fis:$com:$mag:$def:";;2020-12-22;"Con Acuerdo"
"Nogoyá";"MARIA BEATRIZ VIGNOLO";"2020-12";"1215/20";"LOZADA VERONICA";"AMENAZAS";"fis:$com:$mag:$def:";;2020-12-11;"Con Acuerdo"
"Nogoyá";"MARIA BEATRIZ VIGNOLO";"2020-12";"1309/20";"MOREIRA GUSTAVO FABIAN";"SU DENUNCIA";"fis:$com:$mag:$def:";;2020-12-11;"Con Acuerdo"
"Nogoyá";"MARIA BEATRIZ VIGNOLO";"2020-12";"229/20";"MOREIRA GUSTAVO FABIAN";"SU DENUNCIA";"fis:$com:$mag:$def:";;2020-12-11;"Con Acuerdo"
"Nogoyá";"MARIA BEATRIZ VIGNOLO";"2020-12";"1248/20";"SEGOVIA SARA MILAGROS JORGELINA";"SU DENUNCIA";"fis:$com:$mag:$def:";;2020-12-23;"Con Acuerdo"
"Nogoyá";"MARIA BEATRIZ VIGNOLO";"2020-12";"1235/20";"ZARATE FRANCO";"AMENAZAS";"fis:$com:$mag:$def:";;2020-12-17;"Con Acuerdo"
"Villaguay";"ANDREA BONIFACINO";"2020-12";"18033M";"CASSANOVAS MARIA EUGENIA";"SU DENUNCIA";"fis:$com:$mag:$def:";;2020-12-03;"Con Acuerdo"
"Villaguay";"ANDREA BONIFACINO";"2020-12";"16806M";"DOMINGUEZ CECILIA";"INFRACCION A LA LEY Nº 14.346";"fis:$com:$mag:$def:";;2020-12-17;"Con Acuerdo"
"Villaguay";"ANDREA BONIFACINO";"2020-12";"17841M";"LOPEZ MARIANA MAGALI";"SU DENUNCIA";"fis:$com:$mag:$def:";;2020-12-21;"Con Acuerdo"
"Villaguay";"ANDREA BONIFACINO";"2020-12";"18281M";"MARTINEZ ALFREDO FEDERICO";"SU DENUNCIA";"fis:$com:$mag:$def:";;2020-12-30;"Con Acuerdo"
"Villaguay";"ANDREA BONIFACINO";"2020-12";"17363M";"QUINTEROS EDITH GABRIELA";"SU DENUNCIA";"fis:$com:$mag:$def:";;2020-12-11;"Con Acuerdo"
"Villaguay";"ANDREA BONIFACINO";"2020-12";"17491M";"QUINTEROS EDITH GABRIELA";"SU DENUNCIA";"fis:$com:$mag:$def:";;2020-12-10;"Con Acuerdo"
"Villaguay";"ANDREA BONIFACINO";"2020-12";"17464M";"SAGARNA GUILLERMO HECTOR ANTONIO-CABRAL ALFREDO JULIO HERNAN";"SU DENUNCIA";"fis:$com:$mag:$def:";;2020-12-16;"Con Acuerdo"
"Villaguay";"ANDREA BONIFACINO";"2020-12";"18045M";"VAN CAUWENBERGHE MARIANO OSCAR";"SU DENUNCIA";"fis:$com:$mag:$def:";;2020-12-11;"Con Acuerdo"
"Paraná";"VERONICA DEGANI";"2020-12";"147282";"ABALO MARCELO SU DENUNCIA";"INFRACCION A LA LEY Nº 24.270 (Impedimento de Contacto)";"fis:$com:$mag:$def:";;2020-12-16;"Con Acuerdo"
"Paraná";"VERONICA DEGANI";"2020-12";"145679";"DÍAZ MIGUEL ANGEL SU DENUNCIA";"INFRACCION A LA LEY Nº 24.270 (Impedimento de Contacto)";"fis:$com:$mag:$def:";;2020-12-17;"Con Acuerdo"
"Paraná";"VERONICA DEGANI";"2020-12";"146281";"EBERLE ANALIA KARINA SU DENUNCIA";"INFRACCION A LA LEY Nº 13.944 (Incump. Deberes Asistencia Fliar.)";"fis:$com:$mag:$def:";;2020-12-15;"Con Acuerdo"
"Paraná";"VERONICA DEGANI";"2020-12";"146634";"FLEITAS CAROLINA EMILCE SU DENUNCIA";"INFRACCION A LA LEY Nº 13.944 (Incump. Deberes Asistencia Fliar.)";"fis:$com:$mag:$def:";;2020-12-15;"Con Acuerdo"
"Paraná";"VERONICA DEGANI";"2020-12";"147317";"MENDOZA DÍAZ GABRIELA SOLEDAD";"INFRACCION A LA LEY Nº 24.270 (Impedimento de Contacto)";"fis:$com:$mag:$def:";;2020-12-04;"Con Acuerdo"
"Paraná";"VERONICA DEGANI";"2020-12";"146099";"NIERENBERGER JOHANA NOEMI C/ ROTH JONATHAN EXEQUIEL";"VIOLENCIA DE GENERO";"fis:$com:$mag:$def:";;2020-12-16;"Con Acuerdo"
"Paraná";"VALERIA FORNARA";"2020-12";"142310";"SHMITH DANIEL HUGO";"LESIONES";"fis:$com:$mag:$def:";;2020-12-04;"Con Acuerdo"
"Uruguay";"CRISTIÁN ARIEL POETTO";"2020-12";"3504/20";"AYALA, DIEGO SEBASTIÁN; PUCHETA, ELSA BEATRIZ";"SU DENUNCIA";"fis:$com:$mag:$def:";;2020-12-21;"Con Acuerdo"
"Uruguay";"CRISTIÁN ARIEL POETTO";"2020-12";"4179/20";"BREUILLOT, ANDRÉS EDUARDO";"AMENAZAS";"fis:$com:$mag:$def:";;2020-12-18;"Con Acuerdo"
"Uruguay";"CRISTIÁN ARIEL POETTO";"2020-12";"3892/20";"BREUILLOT, CARLA ALEJANDRA; BREUILLOT, ERIC ALEJANDRO";"DAÑOS";"fis:$com:$mag:$def:";;2020-12-18;"Con Acuerdo"
"Uruguay";"CRISTIÁN ARIEL POETTO";"2020-12";"2273/20";"CAPURRO, CARLOS AGUSTÍN";"LESIONES GRAVES";"fis:$com:$mag:$def:";;2020-12-21;"Con Acuerdo"
"Uruguay";"EDGARDO SATTO";"2020-12";"4755/20";"CARDOZO STELLA MARIS - LOPEZ MIRTA GRACIELA";"AMENAZAS";"fis:$com:$mag:$def:";;2020-12-04;"Con Acuerdo"
"Uruguay";"CRISTIÁN ARIEL POETTO";"2020-12";"5114/20";"DOMINGUEZ ACOSTA, ESCOLASTICA; MARTINEZ, ROSALVA ELIZABETH";"SU DENUNCIA";"fis:$com:$mag:$def:";;2020-12-17;"Con Acuerdo"
"Uruguay";"CRISTIÁN ARIEL POETTO";"2020-12";"4059/20";"F.E.P.A.S.A. (FRIGORIFICO ENTRERRIANO DE PRODUCTORES AVICOLAS S.A.)";"USURPACION";"fis:$com:$mag:$def:";;2020-12-23;"Con Acuerdo"
"Uruguay";"CRISTIÁN ARIEL POETTO";"2020-12";"3612/19";"GONZÁLEZ, PEDRO DANIEL; MÉNDEZ, CRISTIAN ROSARIO; DÍAZ ABDON, HORACIO; DÍAZ, HORACIO ANDRÉS; DÍAZ, SEBASTIÁN EDUARDO";"INFRACCION A LA LEY DE CONSERVACION DE LA FAUNA";"fis:$com:$mag:$def:";;2020-12-18;"Con Acuerdo"
"Uruguay";"CRISTIÁN ARIEL POETTO";"2020-12";"5182/20";"MEDAIL, SANDRA MABEL";"LESIONES LEVES";"fis:$com:$mag:$def:";;2020-12-18;"Con Acuerdo"
"Uruguay";"CRISTIÁN ARIEL POETTO";"2020-12";"4974/20";"PERALTA, MIGUEL ANGEL";"AMENAZAS";"fis:$com:$mag:$def:";;2020-12-11;"Con Acuerdo"
"Uruguay";"EDGARDO SATTO";"2020-12";"2924/20";"RAMIREZ NELSON D. - MAIDANA  ANDREA  E. - RAMIREZ CATHERINE L. - LINARES IVANA E.";"LESIONES";"fis:$com:$mag:$def:";;2020-12-22;"Con Acuerdo"
"Uruguay";"CRISTIÁN ARIEL POETTO";"2020-12";"2121/20";"ROBIN, GERARDO JAVIER";"USURPACION";"fis:$com:$mag:$def:";;2020-12-14;"Con Acuerdo"
"Uruguay";"CRISTIÁN ARIEL POETTO";"2020-12";"6275/19";"RODRIGUEZ, ALEJANDRA; SKERLY, JOSÉ MARÍA";"LESIONES GRAVES";"fis:$com:$mag:$def:";;2020-12-01;"Con Acuerdo"
"Uruguay";"CRISTIÁN ARIEL POETTO";"2020-12";"3579/20";"RODRIGUEZ, HÉCTOR LUIS ULISES";"DAÑO";"fis:$com:$mag:$def:";;2020-12-17;"Con Acuerdo"
"Uruguay";"CRISTIÁN ARIEL POETTO";"2020-12";"4972/20";"RODRIGUEZ, LORENA MABEL";"SU DENUNCIA";"fis:$com:$mag:$def:";;2020-12-16;"Con Acuerdo"
"Victoria";"CAROLINA REGGIARDO";"2020-12";"M14649";"AIMONE LUCIANA  ANTONELLA - SU DENUNCIA";"INFRACCION A LA LEY Nº 13.944 (Incump. Deberes Asistencia Fliar.)";"fis:$com:$mag:$def:";;2020-12-17;"Con Acuerdo"
"Victoria";"GUSTAVO EGUIAZU";"2020-12";"M13385";"ALBORNOZ CHRISTIAN DANIEL - SU DENUNCIA";"LESIONES";"fis:$com:$mag:$def:";;2020-12-29;"Con Acuerdo"
"Victoria";"CAROLINA REGGIARDO";"2020-12";"M15361";"ALBORNOZ PAOLA  ALEJANDRA";"SU DENUNCIA";"fis:$com:$mag:$def:";;2020-12-23;"Con Acuerdo"
"Victoria";"CAROLINA REGGIARDO";"2020-12";"M15646";"AQUINO ADRIANA MARICEL - SU DENUNCIA";"INFRACCION A LA LEY Nº 13.944 (Incump. Deberes Asistencia Fliar.)";"fis:$com:$mag:$def:";;2020-12-14;"Con Acuerdo"
"Victoria";"CAROLINA REGGIARDO";"2020-12";"M15704";"BONETTO PEDRO- BONETTO MARIA FERNANDA";"SU DENUNCIA";"fis:$com:$mag:$def:";;2020-12-28;"Con Acuerdo"
"Victoria";"CAROLINA REGGIARDO";"2020-12";"M15066";"CABANA OSCAR ALBERTO RAMON - SU DENUNCIA";"USURPACION";"fis:$com:$mag:$def:";;2020-12-21;"Con Acuerdo"
"Victoria";"CAROLINA REGGIARDO";"2020-12";"M15015";"CESAREGO FABRICIO LUIS - SU DENUNCIA";"AMENAZAS";"fis:$com:$mag:$def:";"alias: \"CHISPA\"";2020-12-03;"Con Acuerdo"
"Victoria";"GUSTAVO EGUIAZU";"2020-12";"M13932";"CORREA DANIELA BELEN -SU DENUNCIA";"INFRACCION A LA LEY Nº 13.944 (Incump. Deberes Asistencia Fliar.)";"fis:$com:$mag:$def:";;2020-12-14;"Con Acuerdo"
"Victoria";"CAROLINA REGGIARDO";"2020-12";"M15696";"GUZMAN NAHUEL GABRIEL - SU DENUNCIA";"IMPEDIMENTO DE CONTACTO";"fis:$com:$mag:$def:";;2020-12-17;"Con Acuerdo"
"Victoria";"CAROLINA REGGIARDO";"2020-12";"M13831";"ONIEVA AYELEN";"LESIONES GRAVES";"fis:$com:$mag:$def:";;2020-12-02;"Con Acuerdo"
"Victoria";"CAROLINA REGGIARDO";"2020-12";"M14957";"MUÑOZ JOANA JUDITH - SU DENUNCIA";"LESIONES";"fis:$com:$mag:$def:";;2020-12-22;"Con Acuerdo"
"Victoria";"CAROLINA REGGIARDO";"2020-12";"M13827";"OJEDA JULIA NOELIA";"SU DENUNCIA";"fis:$com:$mag:$def:";;2020-12-04;"Con Acuerdo"
"Victoria";"CAROLINA REGGIARDO";"2020-12";"M14761";"RIOS SILVANA ANAHI - SU DENUNCIA";"INFRACCION A LA LEY Nº 13.944 (Incump. Deberes Asistencia Fliar.)";"fis:$com:$mag:$def:";;2020-12-14;"Con Acuerdo"
"Victoria";"CAROLINA REGGIARDO";"2020-12";"M15083";"ROMAN FRANCISCO JAVIER - SU DENUNCIA";"DAÑO";"fis:$com:$mag:$def:";;2020-12-29;"Con Acuerdo"
"Victoria";"GUSTAVO EGUIAZU";"2020-12";"M14200";"WOODMAN MARINA RAQUEL - SU DENUNCIA";"ESTAFA";"fis:$com:$mag:$def:";;2020-12-18;"Con Acuerdo"
"La Paz";"ARIEL MILLAN";"2020-12";"F16832";"BENTOS Maria Cristina";"AMENAZAS";"fis:$com:$mag:$def:";;2020-12-21;"Con Acuerdo"
"La Paz";"ARIEL MILLAN";"2020-12";"F16832";"BENTOS Maria Cristina";"AMENAZAS";"fis:$com:$mag:$def:";;2020-12-21;"Con Acuerdo"
"La Paz";"ARIEL MILLAN";"2020-12";"4859/20";"FONTANA Roxana Solange";"AMENAZAS";"fis:$com:$mag:$def:";;2020-12-30;"Con Acuerdo"
"La Paz";"ARIEL MILLAN";"2020-12";"F16994";"GONZALEZ Jose María - BUCHAMER Alfredo Alberto";"AMENAZAS";"fis:$com:$mag:$def:";;2020-12-15;"Con Acuerdo"
"La Paz";"ARIEL MILLAN";"2020-12";"F16994";"GONZALEZ Jose María - BUCHAMER Alfredo Alberto";"AMENAZAS";"fis:$com:$mag:$def:";;2020-12-14;"Con Acuerdo"
"La Paz";"ARIEL MILLAN";"2020-12";"F14514";"MALDONADO Roque Ramón";"AMENAZAS";"fis:$com:$mag:$def:";;2020-12-03;"Con Acuerdo"
"La Paz";"ARIEL MILLAN";"2020-12";"F14514";"MALDONADO Roque Ramón";"AMENAZAS";"fis:$com:$mag:$def:";;2020-12-03;"Con Acuerdo"
"La Paz";"ARIEL MILLAN";"2020-12";"F16469";"MARTINEZ Dante Raúl";"LESIONES LEVES";"fis:$com:$mag:$def:";;2020-12-15;"Con Acuerdo"
"Diamante";"LUISINA YAUSAZ";"2020-11";"009567";"ALVA ENRIQUE OMAR";"LESIONES";"fis:$com:$mag:$def:";;2020-11-20;"Con Acuerdo"
"Diamante";"LUISINA YAUSAZ";"2020-11";"009567";"ALVA ENRIQUE OMAR";"LESIONES";"fis:$com:$mag:$def:";;2020-11-24;"Con Acuerdo"
"Diamante";"LUISINA YAUSAZ";"2020-11";"0010143";"ARESTA JUAN GABRIEL Y OTRA";"INFRACCION A LA LEY Nº 14.346";"fis:$com:$mag:$def:";;2020-11-20;"Con Acuerdo"
"Diamante";"LUISINA YAUSAZ";"2020-11";"009906";"HERNANDEZ WALTER EXEQUIEL";"LESIONES";"fis:$com:$mag:$def:";;2020-11-20;"Con Acuerdo"
"Diamante";"LUISINA YAUSAZ";"2020-11";"009906";"HERNANDEZ WALTER EXEQUIEL";"LESIONES";"fis:$com:$mag:$def:";;2020-11-20;"Con Acuerdo"
"Diamante";"LUISINA YAUSAZ";"2020-11";"0010125";"LINARES MONICA LORENA";"DESOBEDIENCIA A LA AUTORIDAD";"fis:$com:$mag:$def:";;2020-11-27;"Con Acuerdo"
"Diamante";"LUISINA YAUSAZ";"2020-11";"0010248";"PARRONE BRISA BELEN";"AMENAZAS";"fis:$com:$mag:$def:";;2020-11-30;"Con Acuerdo"
"Diamante";"LUISINA YAUSAZ";"2020-12";"009845";"MAYER LUCIANO NAHUEL";"SU DENUNCIA";"fis:$com:$mag:$def:";;2020-12-16;"Con Acuerdo"
"Diamante";"LUISINA YAUSAZ";"2020-12";"0010291";"MONTENEGRO OCTAVIO Y OTROS";"AMENAZAS";"fis:$com:$mag:$def:";;2020-12-17;"Con Acuerdo"
"Diamante";"LUISINA YAUSAZ";"2020-12";"009719";"SORIA JOSE NORBERTO";"AMENAZAS";"fis:$com:$mag:$def:";;2020-12-04;"Con Acuerdo"
"Concordia";"TABUENCA";"2020-11";"8671/20";"AMIANO, ALICIA JOSEFINA";"SU DENUNCIA";"fis:CONCORDIA -Fiscalia  N° 2 (Dra. Elias M)$com:COMISARIA TERCERA$mag:UNIDAD DE GESTION y ATENCION PRIMARIA$def:";"49 años";2020-11-12;"Con Acuerdo"
"Concordia";"TABUENCA";"2020-11";"8686/20";"BOGAO, MONICA ISABEL";"SU DENUNCIA";"fis:CONCORDIA -Fiscalia  N° 2 (Dra. Elias M)$com:COMISARIA CUARTA$mag:UNIDAD DE GESTION Y ATENCION PRIMARIA -CON MEDIDA*$def:";"41 años";2020-11-12;"Con Acuerdo"
"Concordia";"TURLETTI";"2020-11";"8461/20";"CARDOZO, ELIAN EZEQUIEL / MARTINEZ, AXEL NICOLAS";"DENUNCIAS";"fis:CONCORDIA -Fiscalia  N° 2 (Dra. Elias M)$com:COMISARIA CUARTA$mag:UNIDAD DE GESTION Y ATENCION PRIMARIA -CON MEDIDA*$def:";"23 años";2020-11-04;"Con Acuerdo"
"Concordia";"TURLETTI";"2020-11";"8874/20";"DE SOUZA, LUCRECIA ANDREA";"SU DENUNCIA";"fis:CONCORDIA -Fiscalia  N° 2 (Dra. Elias M)$com:COMISARIA DEL MENOR y la FAMILIA$mag:UNIDAD DE GESTION Y ATENCION PRIMARIA -CON MEDIDA*$def:";"46 años";2020-11-10;"Con Acuerdo"
"Concordia";"TABUENCA";"2020-11";"6549/20";"DOME, MARIA EVANGELINA";"SU DENUNCIA";"fis:CONCORDIA -Fiscalia  N° 2 (Dra. Elias M)$com:COMISARIA PRIMERA$mag:UNIDAD DE GESTION Y ATENCION PRIMARIA -CON MEDIDA*$def:";"22 años";2020-11-24;"Con Acuerdo"
"Concordia";"TURLETTI";"2020-11";"8886/20";"GAIGA, JAVIER ANDRES / SYME, CARLOS ALBINO";"SU DENUNCIA";"fis:CONCORDIA -Fiscalia  N° 2 (Dra. Elias M)$com:COMISARIA CUARTA$mag:UNIDAD DE GESTION y ATENCION PRIMARIA$def:";"69 años";2020-11-06;"Con Acuerdo"
"Concordia";"TURLETTI";"2020-11";"9430/20";"LEIVA, JUAN MANUEL";"SU DENUNCIA";"fis:CONCORDIA -Fiscalia  N° 2 (Dra. Elias M)$com:COMISARIA TERCERA$mag:UNIDAD DE GESTION Y ATENCION PRIMARIA -CON MEDIDA*$def:";"35 años";2020-11-30;"Con Acuerdo"
"Concordia";"TURLETTI";"2020-11";"9154/20";"MARTINEZ, RAFAEL JOSE";"SU DENUNCIA";"fis:CONCORDIA -Fiscalia  N° 2 (Dra. Elias M)$com:COMISARIA SEGUNDA$mag:UNIDAD DE GESTION Y ATENCION PRIMARIA -CON MEDIDA*$def:";"47 años";2020-11-24;"Con Acuerdo"
"Concordia";"TABUENCA";"2020-11";"9155/20";"PERULL, TERESA MARIA";"SU DENUNCIA";"fis:CONCORDIA -Fiscalia  N° 2 (Dra. Elias M)$com:COMISARIA QUINTA$mag:UNIDAD DE GESTION Y ATENCION PRIMARIA -CON MEDIDA*$def:";"38 años";2020-11-24;"Con Acuerdo"
"Concordia";"TURLETTI";"2020-11";"9064/20";"RIVERO, YAMILA DIANA";"SU DENUNCIA";"fis:CONCORDIA -Fiscalia  N° 2 (Dra. Elias M)$com:Comisaría del Menor$mag:UNIDAD DE GESTION y ATENCION PRIMARIA$def:";"29 años";2020-11-18;"Con Acuerdo"
"Concordia";"TABUENCA";"2020-11";"8446/20";"SCARABELLO, ANGELA DANIELA";"SU DENUNCIA";"fis:CONCORDIA -Fiscalia  N° 2 (Dra. Elias M)$com:COMISARIA COLONIA YERUA$mag:UNIDAD DE GESTION Y ATENCION PRIMARIA -CON MEDIDA*$def:";"22 años";2020-11-04;"Con Acuerdo"
"Concordia";"TURLETTI";"2020-11";"8716/20";"TORRES, INES MARIA JOSE / GONZALEZ, ELIDA ESTER";"SU DENUNCIA";"fis:CONCORDIA -Fiscalia  N° 2 (Dra. Elias M)$com:COMISARIA SEPTIMA$mag:UNIDAD DE GESTION Y ATENCION PRIMARIA -CON MEDIDA*$def:";"32 años";2020-11-02;"Con Acuerdo"
"Concordia";"TURLETTI";"2020-12";"9924/20";"AGUERO, MAURICIO GERARDO";"SU DENUNCIA";"fis:CONCORDIA -Fiscalia  N° 2 (Dra. Elias M)$com:SECCION JUDICIALES - Jefatura Dptal Concordia$mag:UNIDAD DE GESTION Y ATENCION PRIMARIA -CON MEDIDA*$def:";;2020-12-22;"Con Acuerdo"
"Concordia";"TABUENCA";"2020-12";"9449/20";"ANDERSON, ANDREA AURORA";"SU DENUNCIA";"fis:CONCORDIA -Fiscalia  N° 2 (Dra. Elias M)$com:COMISARIA FRIGORIFICO YUQUERI$mag:UNIDAD DE GESTION Y ATENCION PRIMARIA -CON MEDIDA*$def:";;2020-12-14;"Con Acuerdo"
"Concordia";"TURLETTI";"2020-12";"9451/20";"BAST, GERMAN LUCAS";"SU DENUNCIA";"fis:CONCORDIA -Fiscalia  N° 2 (Dra. Elias M)$com:COMISARIA DE PUERTO YERUA$mag:UNIDAD DE GESTION Y ATENCION PRIMARIA -CON MEDIDA*$def:";"24 años";2020-12-02;"Con Acuerdo"
"Concordia";"ARAVI";"2020-12";"9385/20";"BORCHE, ADRIANA CARINA";"SU DENUNCIA";"fis:CONCORDIA -Fiscalia  N° 2 (Dra. Elias M)$com:SECCION JUDICIALES - Jefatura Dptal Concordia$mag:UNIDAD DE GESTION Y ATENCION PRIMARIA -CON MEDIDA*$def:";"36 años";2020-12-17;"Con Acuerdo"
"Concordia";"TURLETTI";"2020-12";"9676/20";"CARETA, VICTORIA VANESA / ROMERO, RUBEN DARIO";"DENUNCIAS";"fis:CONCORDIA -Fiscalia  N° 2 (Dra. Elias M)$com:COMISARIA SEPTIMA$mag:UNIDAD DE GESTION Y ATENCION PRIMARIA -CON MEDIDA*$def:";"19 años";2020-12-16;"Con Acuerdo"
"Concordia";"TABUENCA";"2020-12";"10118/20";"CORREA, MARCELO JAVIER";"SU DENUNCIA";"fis:CONCORDIA -Fiscalia  N° 2 (Dra. Elias M)$com:COMISARIA SEPTIMA$mag:UNIDAD DE GESTION Y ATENCION PRIMARIA -CON MEDIDA*$def:";"35 años";2020-12-22;"Con Acuerdo"
"Concordia";"ARAVI";"2020-12";"9652/20";"HERLEIN, GASTON AURELIO";"SU DENUNCIA";"fis:CONCORDIA -Fiscalia  N° 2 (Dra. Elias M)$com:COMISARIA DEL MENOR y la FAMILIA$mag:UNIDAD DE GESTION y ATENCION PRIMARIA$def:";"18 años";2020-12-29;"Con Acuerdo"
"Concordia";"ARAVI";"2020-12";"8887/20";"MAYDANDA, FLAVIA GABRIELA";"SU DENUNCIA";"fis:CONCORDIA -Fiscalia  N° 2 (Dra. Elias M)$com:COMISARIA SEGUNDA$mag:UNIDAD DE GESTION y ATENCION PRIMARIA$def:";"30 años";2020-12-17;"Con Acuerdo"
"Concordia";"TABUENCA";"2020-12";"3317/20";"OVIEDO, DAIANA SOLEDAD";"SU DENUNCIA";"fis:CONCORDIA -Fiscalia  N° 2 (Dra. Elias M)$com:COMISARIA PRIMERA$mag:UNIDAD DE GESTION y ATENCION PRIMARIA$def:";"18 años";2020-12-01;"Con Acuerdo"
"Concordia";"ARAVI";"2020-12";"8462/20";"PIETRAVALLO, JORGE MAURICIO";"SU DENUNCIA";"fis:CONCORDIA -Fiscalia  N° 2 (Dra. Elias M)$com:COMISARIA OCTAVA$mag:UNIDAD DE GESTION Y ATENCION PRIMARIA -CON MEDIDA*$def:";"45 años";2020-12-29;"Con Acuerdo"
"Concordia";"ARAVI";"2020-12";"9452/20";"ROMAN, VICTORIA";"SU DENUNCIA";"fis:CONCORDIA -Fiscalia  N° 2 (Dra. Elias M)$com:FISCALIA  GENERAL de COORDINACION - JURISDICCION CONCORDIA$mag:UNIDAD DE GESTION Y ATENCION PRIMARIA -CON MEDIDA*$def:";"48 años";2020-12-17;"Con Acuerdo"
"Concordia";"ARAVI";"2020-12";"8182/20";"SAUSTO, CRISTINA LORENA";"SU DENUNCIA";"fis:CONCORDIA -Fiscalia  N° 2 (Dra. Elias M)$com:COMISARIA SEXTA$mag:UNIDAD DE GESTION Y ATENCION PRIMARIA -CON MEDIDA*$def:";"54 años";2020-12-15;"Con Acuerdo"
"Colón";"BURGOS";"2020-12";"M-1828/2020";"M- AGÜERO AILEN SOLEDAD";"SU DENUNCIA";"fis:$com:$mag:$def:";;2020-12-09;"Con Acuerdo"
"Colón";"BURGOS";"2020-12";"M-2400/2020";"M- DE ANGELIS SEBASTIAN";"SU DENUNCIA";"fis:$com:$mag:$def:";;2020-12-09;"Con Acuerdo"
"Colón";"BURGOS";"2020-12";"M-1829/2020";"M- FLEITAS DEBORA LUCRECIA, PACHECO BERTA ELENA";"DENUNCIAS";"fis:$com:$mag:$def:";;2020-12-03;"Con Acuerdo"
"Colón";"BURGOS";"2020-12";"M-1383/2020";"M- GALIANO ROSA BENEDICTA";"SU DENUNCIA";"fis:$com:$mag:$def:";;2020-12-15;"Con Acuerdo"
"Colón";"BURGOS";"2020-12";"M-2029/2020";"M- GUY SONIA TERESITA";"SU DENUNCIA";"fis:$com:$mag:$def:";;2020-12-15;"Con Acuerdo"
"Colón";"BURGOS";"2020-12";"M-2485/2020";"M- MARTIRENA PAMELA GISELA";"SU DENUNCIA";"fis:$com:$mag:$def:";;2020-12-14;"Con Acuerdo"
"Colón";"BURGOS";"2020-12";"M-1931/2020";"M- QUINTANA DARIO GUSTAVO";"SU DENUNCIA";"fis:$com:$mag:$def:";;2020-12-16;"Con Acuerdo"
"Colón";"BURGOS";"2020-12";"M-2168/2020";"M- VERNAZ JUAN CARLOS";"SU DENUNCIA";"fis:$com:$mag:$def:";;2020-12-29;"Con Acuerdo"
