V1,V2,V3,V4,V5,V6,V7,V8,V9,V10,V11,V12,V13,
1,Garrera Allende - Bastian - Giorgio,,,,,,,2:20,,,,10:35,12:55
2,Garrera Allende - Giorgio - Caprarulo,,,,,,,0:22,,,,,0:22
3,Garrera Allende - Lopez Bernis – Degano,0:25,,,,,,,,,,,0:25
4,Giorgio,2:15,5:30,0:15,0:35,,0:20,,0:45,10:58,0:20,,20:58
5,Giorgio - Bastian - Degano,,,,,,,,,,,7:34,7:34
6,Giorgio - Caprarulo - Degano,,,,,,,,,,,6:58,6:58
7,Giorgio - Caprarulo - G Allende,,,,,,,,,1:35,,,1:35
8,Giorgio - Degano - G Allende,,4:30,,,8:10,4:26,4:26,,,,,21:32
9,Giorgio - Degano - Lopez Bernis,,,,4:22,,,,,,,,4:22
10,Giorgio - Lopez Bernis – Bastian,8:00,,,,,,,,,,,8:00
11,Giorgio - Lopez Bernis - G Allende,,6:12,,,,,,,,,,6:12
12,Ledesma,3:10,6:00,3:34,0:37,2:12,0:20,1:55,1:12,2:02,1:48,0:40,23:30
13,Lopez Bernis,0:28,,0:40,0:12,,0:15,0:35,0:40,1:11,48:00,0:50,6:51
14,Lopez Bernis -  Bastian - Degano,,,,4:21,,,,,,,,4:21
15,Lopez Bernis - Degano - Giorgio,,,15:24,,,,,,,,,15:24
16,Lopez Bernis - G. Allende - Bastian,,,,,,,,,,9:57,,9:57
17,Mautone,2:03,2:20,4:42,2:07,0:20,1:16,2:57,2:25,1:33,0:49,0:05,20:37
18,Balbi - Crespo - Gomez,,,,,,,0:02,,,,,0:02
19,Cadenas,,0:20,,0:25,0:47,0:22,0:27,,0:38,2:02,0:14,5:15
20,Cadenas - Calleja - Acosta,,,,,,,,18:09,20:11,,,38:20
21,Cadenas - Crespo - Tortul,,,,,,,,,,,5:23,5:23
22,Cadenas - Tortul - Calleja,,,18:29,,,,,,,,,18:29
23,Cadenas - Tortul - Crespo,,,4:26,2:17,,,,,,,5:58,12:41
24,Crespo,0:12,,0:25,,,,0:23,1:04,0:20,,,2:24
25,Crespo - Cadenas,,,,,,,0:01,,,,,0:01
26,Crespo - Cadenas - Acosta,,,,,,,5:25,,,,,5:25
27,Crespo - Cadenas - Gomez,,,,,28:49,0:43,,,,,,29:32
28,Crespo - Cadenas – Tortul,10:05,,,,,,,,,,7:03,17:08
29,Elal,0:45,2:20,5:55,4:50,1:25,1:55,1:35,0:45,1:50,1:15,1:00,23:35
30,Gomez,0:45,1:25,0:45,1:35,2:00,2:00,,1:30,0:45,1:30,0:35,12:50
31,Tortul,0:25,,2:17,0:03,0:20,1:07,0:14,,,,1:01,5:27
32,Tortul - Cadenas -Crespo,,,,14:49,,,,,9:55,9:55,,34:39
33,Tortul - Crespo - Gomez,,,,,,6:44,0:01,,9:02,,,15:47
34,Derudi,6:40,15:09,,0:50,7:08,3:00,6:40,0:55,7:01,4:35,,51:58
35,Derudi - Dumon - Vivian,,,,,14:48,0:45,,11:35,,,,27:08
36,Derudi - Shmith- Podesta,,,,,,,,,0:30,,,0:30
37,Dumon,0:45,7:00,,,6:47,9:05,3:35,0:35,6:50,13:20,,47:57
38,Dumon - Vivian - Derudi,,,,,,,6:59,0:55,10:02,,,19:56
39,Podesta,2:54,0:51,2:12,2:59,1:30,0:40,3:10,0:50,1:35,,1:10,17:51
40,Telenta,1:19,0:51,0:50,1:14,2:10,0:50,3:50,2:20,0:30,,0:25,14:19
41,Vivian,2:04,,,,14:06,1:10,0:25,2:55,1:00,11:00,,32:40
42,Vivian -Deduri -Dumon,,,47:40,4:18,,3:50,4:14,,,,24:24,84:26
43,Canepa,,,,2:20,,,1:45,,0:55,15:40,5:05,25:45
44,Carballo,1:08,0:43,24:00,2:09,0:36,0:12,0:59,1:22,48:00,2:11,0:21,12:41
45,Castagno,,0:50,,4:25,5:30,,1:45,0:32,9:27,,,22:29
46,Flores,,,,,,1:06,,,,,,1:06
47,Rodriguez,,,,,,,,0:20,,,,0:20
48,Van Dembroucke,8:46,5:39,2:25,4:25,1:42,,,,,,,22:57
49,Acosta,0:40,1:30,2:30,0:20,1:40,,0:40,1:25,1:40,0:20,0:30,11:15
50,Orlandi,,,,,,,0:50,0:40,,,0:40,2:10
