"cod_jufejus";"descripcion";"datos";"observacion"
-1;"PROVINCIA:";"Entre Ríos";" "
;;;" "
0;"PERÍODO QUE SE INFORMA:";"nov-2021";" "
;;;" "
;;;" "
;;;" "
;;;" "
1;"Sistema Penal";"Acusatorio";" "
;;;" "
2;"Fuero Especializado Menores";"Juzgado de Menores";" "
;;;" "
3;"Lugares de Alojamiento Medidas Priv Libertad";"Especializado (Separado de adultos)";" "
;;;" "
4;"Supervisado por organismos de control de condiciones de detención";"Adminsitrativo";" "
;;;" "
5;"Cantidad de Procesos Penales tramitados con niños, niñas y adolescentes";"27";
;;;" "
6;"Cantidad de niños, niñas y adolescentes involucrados en procesos penales";"31";
;;;" "
7;"GENERO";;" "
71;"Femenino";"2";
72;"Masculino";"23";
73;"Otro";"0";
74;"s/d";"5";
;;;" "
;;;" "
8;"EDAD";;" "
81;"menos de 14";"1";
82;"14";"4";
83;"15";"1";
84;"16";"8";
85;"17";"16";
86;"s/d";"0";
;;;" "
9;"NIVEL EDUCATIVO";;" "
91;"No concurrió";"0";
92;"Primaria Incompleta";"6";
93;"Primaria Completa";"2";
94;"Secundaria Incompleta";"9";
95;"Secundaria Completa";"0";
96;"Educación Informal";"0";
97;"s/d";"14";
;;;" "
;;;" "
10;"ACTIVIDAD LABORAL";;" "
101;"Sí";"5";
102;"No";"12";
103;"s/d";"14";
;;;" "
;;;" "
11;"Intervención Previa de Organismos Administrativos de Protección por Situaciones de Vulnerabilidad de Derechos";;" "
111;"Sí";"1";
112;"No";"11";
113;"s/d";"16";
12;"Consumo problemáticos de Sustancias Psicoactivas";;" "
121;"Sí";"3";
122;"No";"11";
123;"s/d";"16";
13;"Participación Conjunta con Adultos";"0";
;;;" "
;;;" "
;;;" "
14;"DELITOS";;" "
141;"DELITOS CONTRA LAS PERSONAS";;" "
1411;"Homicidio Simple";"2";
1412;"Homicidio Agravado";"0";
1413;"Tentativa de Homicidio";"3";
1414;"Lesiones Dolosas";"7";
1415;"Abuso de Armas";"2";
1416;"Otro (Especificar)";"2";
142;"DELITOS CONTRA LA PROPIEDAD";;" "
1421;"Hurto Agravado";"0";
1422;"Robo Simple";"2";
1423;"Robo Agravado";"3";
1424;"Robo con Arma de Fuego";"1";
1425;"Otro (Especificar)";"0";
143;"DELITOS CONTRA LA INTEGRIDAD SEXUAL";;" "
1431;"Abuso Sexual Simple";"2";
1432;"Abuso Sexual Agravado";"1";
1433;"Otros (Especificar)";"0";
144;"OTROS DELITOS";"4";
;;;" "
;;;" "
15;"Medidas de Coerción Procesal Adoptadas durante el Proceso Penal";;" "
151;"Privativas de Libertad";;" "
1511;"Plazo: 30-59 Días";"0";
1512;"Plazo: 60-89 Días";"0";
1513;"Plazo: 90-119 Días";"0";
1514;"Plazo: 120 o más";"0";
152;"Otras Medidas de Coerción Procesal Adoptadas durante el Proceso Penal NO Privativas de la Libertad";"0";
;;;" "
;;;" "
16;"Lugares de Alojamiento de Medidas de Coerción Privativas de la Libertad";;" "
161;"Especializado (Separado de Adultos)";"1";
162;"No Especializado (Adultos y Menores de Edad)";"0";
;;;" "
;;;" "
17;"Resultados del Juicio";;" "
171;"Absolución";"0";
172;"Absolución Art. 4 Dec. Ley 22.278 (declara menor responsable)";"0";
173;"Condena Efectiva";"0";
174;"Condena Condicional";"0";
175;"Medidas alternativas al proceso penal y/o sanción";"1";
176;"Otro (Especificar)";"6";"Sent.declarat.resp.y.med.judiciales"
;;;" "
;;;" "
;;;" "
18;"Monto de la Pena";;" "
181;"Menos de 1 año";"0";
182;"1 año hasta menos de 3";"1";
183;"3 años hasta menos de 6";"0";
184;"6 años hasta menos de 9";"0";
185;"9 años hasta menos de 12";"0";
186;"12 años o más";"0";
;;;" "
;;;" "
19;"Con Reiterancia delictiva";;" "
191;"Si";"9";
192;"No";"12";
193;"S/d";"10";
;;;" "
20;"Niños, niñas y adolescentes privados de libertad al 31/12/21";;
