"1.1. Indique el marco normativo provincial de referencia en materia de justicia penal juvenil";"...2";"...3"
"* Incluir únicamente datos no registrados en la información enviada con anterioridad o correcciones a realizar *";;
"Ley N°";"Año";"Descripción"
"10450";"2016";"Procedimiento Penal aplicable  a las  personas menores 18 años de edad  de la Prov. de Entre Ríos"
