"metodologia"
"En el protocolo de registración de datos Penal_Juvenil vigente en el STJER no se trabaja con desagregación de edad menor a 14 años, por lo cual los individuos relevados bajo esta categoría serán asignados a la categoría \"13 años\". Asimismo, no se registra nacionalidad por lo que el dato de nacionalidad argentina se infiere de la disposición del DNI, mientras que las demás nacionalidades relevadas no se dispone del dato para las niveles \"LATINOAMERICA\" y \"OTROS\". Respecto de los grupos de delitos, dada la distinta clasificación disponible en nuestra jurisdicción los tipos de delito contra el orden, administración, fe y seguridad públicas, como también leyes especiales, no se discriminan por lo que se encuentran subsumidos bajo la categoría \"otros\". Finalmente no se releva el dato vinculado al tipo de lugar de alojamiento donde se inició cada medida asociada a cada NNA."
"Los datos primarios empleados en este relevamiento fueron informados por cada órgano jurisdiccional mediante presentaciones digitales. Dicha información se releva mensualmente conforme a protocolos formales de registro y entrega de información. Respecto de la materia penal juvenil el STJER adhirió al protocolo de la Junta Federal de Cortes y Superiores Tribunales de Justicia de las Provincias Argentinas y CABA vinculado al \"Sistema único de Indicadores penal juvenil\", cuyo contenido se pone a disposición (para más información ver https://www.reflejar.gob.ar/2022/05/04/sistema-unico-de-indicadores-penal-juvenil-de-la-jufejus/)"
