"organismo","circunscripcion","mediador","legajo_nro","caratula","tipo_proceso","fiscal*","fiscalia*","fecha_inicio_OMA"
"OMA","Colón","BURGOS","M-2638/2022","M- ACOSTA OLIVO RAUL","SU DENUNCIA",NA,NA,2022-09-27
"OMA","Colón","BURGOS","M-1604/2022","M- ACTUACIONES DE OFICIO ACCIDENTE DE TRANSITO","LESIONES GRAVES",NA,NA,2022-09-28
"OMA","Colón","BURGOS","M-2320/2022","M- ALVAREZ FRANCISCO DAMIAN","SU DENUNCIA",NA,NA,2022-09-08
"OMA","Colón","BURGOS","M-2035/2022","M- ARRUA SIMON ISIDORO","SU DENUNCIA",NA,NA,2022-09-09
"OMA","Colón","BURGOS","M-2220/2022","M- BERGER ALEJANDRO RUBEN","SU DENUNCIA",NA,NA,2022-09-06
"OMA","Colón","BURGOS","M-1576/2022","M- BOUVET MARISA ELISABET","SU DENUNCIA",NA,NA,2022-09-09
"OMA","Colón","BURGOS","M-2322/2022","M- BREM ORLANDO ENRIQUE","SU DENUNCIA",NA,NA,2022-09-12
"OMA","Colón","BURGOS","M-2300/2022","M- CASSE MAXIMILIANO DANIEL","SU DENUNCIA",NA,NA,2022-09-08
"OMA","Colón","BURGOS","M-2362/2022","M- CORINALDESI MARIA ADELA","SU DENUNCIA",NA,NA,2022-09-12
"OMA","Colón","BURGOS","M-2625/2022","M- CORREA JORGE ADRIAN","SU DENUNCIA",NA,NA,2022-09-27
"OMA","Colón","BURGOS","M-2441/2022","M- DIMOTTA BONATO SERGIO ALAN","SU DENUNCIA",NA,NA,2022-09-20
"OMA","Colón","BURGOS","M-2590/2022","M- ESPINOSA SILVIA YANINA","SU DENUNCIA",NA,NA,2022-09-26
"OMA","Colón","BURGOS","M-2266/2022","M- FORCLAZ IGNACIO PABLO","SU DENUNCIA",NA,NA,2022-09-02
"OMA","Colón","BURGOS","M-2417/2022","M- FRANCO ROCIO ITATI","SU DENUNCIA",NA,NA,2022-09-16
"OMA","Colón","BURGOS","M-1975/2022","M- GOMEZ ESPERANZA GABRIELA Y BARZELO ZULEMA ESTER","SU DENUNCIA",NA,NA,2022-09-14
"OMA","Colón","BURGOS","M-1755/2022","M- KAUS NANCY ELISABETH","SU DENUNCIA",NA,NA,2022-09-23
"OMA","Colón","BURGOS","M-2285/2022","M- LAZCANO VIRGINIA PATRICIA","SU DENUNCIA",NA,NA,2022-09-06
"OMA","Colón","BURGOS","M-1844/2022","M- LLASSER RODOLFO","LESIONES GRAVES",NA,NA,2022-09-28
"OMA","Colón","BURGOS","M-2361/2022","M- MARTINEZ RAUL OMAR","SU DENUNCIA",NA,NA,2022-09-12
"OMA","Colón","BURGOS","M-2332/2022","M- MASSIOLO CLAUDIO LUCIANO LUJAN","SU DENUNCIA",NA,NA,2022-09-14
"OMA","Colón","BURGOS","M-2393/2022","M- MASSUH KAREN MARIA","SU DENUNCIA",NA,NA,2022-09-16
"OMA","Colón","BURGOS","M-1431/2022","M- MENOR B. S. A.","LESIONES GRAVES",NA,NA,2022-09-28
"OMA","Colón","BURGOS","M-2558/2022","M- MOREL CHEVILLET ANTONELLA","SU DENUNCIA",NA,NA,2022-09-21
"OMA","Colón","BURGOS","M-1580/2022","M- MOYANO FERNANDO ESEQUIEL","SU DENUNCIA",NA,NA,2022-09-09
"OMA","Colón","BURGOS","M-2327/2022","M- ODIARD SUSANA MARIA","SU DENUNCIA",NA,NA,2022-09-12
"OMA","Colón","BURGOS","M-2392/2022","M- ORTIZ EVANGELINA ALEJANDRA","SU DENUNCIA",NA,NA,2022-09-16
"OMA","Colón","BURGOS","M-859/2022","M- PIEDRABUENA AXEL MATIAS","SU DENUNCIA",NA,NA,2022-09-09
"OMA","Colón","BURGOS","M-2565/2022","M- RAMIREZ SONIA MABEL","SU DENUNCIA",NA,NA,2022-09-21
"OMA","Colón","BURGOS","M-2428/2022","M- RAMOS MOIRA GRISEL","SU DENUNCIA",NA,NA,2022-09-21
"OMA","Colón","BURGOS","M-1181/2021","M- ROMERO DEBORA PATRICIA","SU DENUNCIA",NA,NA,2022-09-06
"OMA","Colón","BURGOS","M-2274/2022","M- ROMERO ESTEBAN JOSE","SU DENUNCIA",NA,NA,2022-09-06
"OMA","Colón","BURGOS","M-1590/2022","M- ROUGIER FLORENCIA ESTEFANIA","SU DENUNCIA",NA,NA,2022-09-09
"OMA","Colón","BURGOS","M-2174/2022","M- ROUGIER GASTON ANDRES","SU DENUNCIA",NA,NA,2022-09-02
"OMA","Colón","BURGOS","M-2212/2022","M- SAFFORES ROMINA FERNANDA","SU DENUNCIA",NA,NA,2022-09-02
"OMA","Colón","BURGOS","M-2611/2022","M- SALVA JAVIER ALEJANDRO","SU DENUNCIA",NA,NA,2022-09-27
"OMA","Colón","BURGOS","M-2563/2022","M- SMORCHEFSKY NAIR AGUSTINA","SU DENUNCIA",NA,NA,2022-09-23
"OMA","Colón","BURGOS","M-2634/2022","M- TEJERA ELIANA SOLEDAD","SU DENUNCIA",NA,NA,2022-09-26
"OMA","Colón","BURGOS","M-2253/2022","M- TUYARE CAMILA EPIFANIA","SU DENUNCIA",NA,NA,2022-09-06
"OMA","Colón","BURGOS","M-3029/2021","M- VELZI GUILLERMO HUGO","LESIONES GRAVES",NA,NA,2022-09-19
"OMA","Colón","BURGOS","M-2344/2022","M- VILLALBA ROCIO AYELEN","SU DENUNCIA",NA,NA,2022-09-09
"OMA","Colón","BURGOS","M-2213/2022","M- WAMBOLDT GUILLERMO ANTONIO","SU DENUNCIA",NA,NA,2022-09-07
"OMA","Colón","BURGOS","M-2411/2022","M- WERMER SEBASTIAN HORACIO","SU DENUNCIA",NA,NA,2022-09-16
"OMA","Colón","sin_dato","M-2313/2022","M- TRONCOSO SOLEDAD MARIANELA","SU DENUNCIA",NA,NA,2022-09-08
"OMA","Concordia","ARAVI","9430/22","ACOSTA, ENRIQUE DANIEL","SU DENUNCIA","37 años","CONCORDIA -Fiscalia N° 9 (Dra. Elias Mariana)",2022-09-27
"OMA","Concordia","ARAVI","9003/22","ACOSTA, ENRIQUE DANIEL","SU DENUNCIA",NA,"CONCORDIA -Fiscalia N° 9 (Dra. Elias Mariana)",2022-09-19
"OMA","Concordia","ARAVI","8628/22","AGUIRRE, EXEQUIEL DAVID","SU DENUNCIA","23 años","CONCORDIA -Fiscalia N° 9 (Dra. Elias Mariana)",2022-09-07
"OMA","Concordia","ARAVI","8763/22","ALALI, LEILA","SU DENUNCIA","46 años","CONCORDIA -Fiscalia N° 9 (Dra. Elias Mariana)",2022-09-08
"OMA","Concordia","ARAVI","8329/22","BEJARANO, DALILA CASANDRA","SU DENUNCIA","26 años","CONCORDIA -Fiscalia Aux N° 1 (Dr. Azcué)",2022-09-05
"OMA","Concordia","ARAVI","8767/22","DA ROSA, NANCY MARIELA","SU DENUNCIA","21 años","CONCORDIA -Fiscalia N° 9 (Dra. Elias Mariana)",2022-09-09
"OMA","Concordia","ARAVI","9053/22","DAL MOLIN, VICTOR JOSE","SU DENUNCIA",NA,"CONCORDIA -Fiscalia N° 6 (Dra. Julia Rivoira)",2022-09-20
"OMA","Concordia","ARAVI","8190/22","GOMEZ, FABIANA LEONOR","SU DENUNCIA","37 años","CONCORDIA -Fiscalia Aux N° 1 (Dr. Azcué)",2022-09-05
"OMA","Concordia","ARAVI","9363/22","MIÑO, AYELEN ISABEL","SU DENUNCIA",NA,"CONCORDIA -Fiscalia N° 9 (Dra. Elias Mariana)",2022-09-26
"OMA","Concordia","ARAVI","9519/22","MORILLO, SOLEDAD ANDREA","SU DENUNCIA","38 años","CONCORDIA -Fiscalia N° 9 (Dra. Elias Mariana)",2022-09-28
"OMA","Concordia","ARAVI","8775/22","NASER, SILVIO ROGELIO","SU DENUNCIA","24 años","CONCORDIA -Fiscalia N° 9 (Dra. Elias Mariana)",2022-09-13
"OMA","Concordia","ARAVI","8360/22","OVIEDO, DAIANA SOLEDAD","SU DENUNCIA","23 años","CONCORDIA -Fiscalia N° 9 (Dra. Elias Mariana)",2022-09-01
"OMA","Concordia","ARAVI","6959/22","RAMIREZ, JUAN MANUEL","SU DENUNCIA","30 años","CONCORDIA -Fiscalia N° 9 (Dra. Elias Mariana)",2022-09-16
"OMA","Concordia","ARAVI","7534/22","ROMERO, FRANCO DAMIAN","SU DENUNCIA","23 años","CONCORDIA -Fiscalia N° 9 (Dra. Elias Mariana)",2022-09-01
"OMA","Concordia","ARAVI","8849/22","SCHNEIDER, CRISTIAN ALBERTO","SU DENUNCIA","72 años.","CONCORDIA -Fiscalia N° 9 (Dra. Elias Mariana)",2022-09-12
"OMA","Concordia","ARAVI","8989/22","VIDONI, EDUARDO DANIEL","SU DENUNCIA","22 años","CONCORDIA -Fiscalia N° 9 (Dra. Elias Mariana)",2022-09-16
"OMA","Concordia","TABUENCA","8777/22","BONAZOLA, ADRIANA MATILDE Y SEGOVIA, CECILIA MARIA DE LOS ANGELES","SU DENUNCIA","23 años","CONCORDIA -Fiscalia N° 9 (Dra. Elias Mariana)",2022-09-09
"OMA","Concordia","TABUENCA","8994/22","CHARLES MENGEON, JUAN PABLO Y PIÑEIRO, JAVIER JUAN RUBEN","DENUNCIAS","53 años","CONCORDIA -Fiscalia N° 9 (Dra. Elias Mariana)",2022-09-16
"OMA","Concordia","TABUENCA","6763/22","DIAZ, JULIO DOMINGO","SU DENUNCIA","78 años","CONCORDIA -Fiscalia N° 6 (Dra. Julia Rivoira)",2022-09-16
"OMA","Concordia","TABUENCA","8620/22","GALARZA, GIULIANA THALIA","SU DENUNCIA",NA,"CONCORDIA -Fiscalia N° 9 (Dra. Elias Mariana)",2022-09-07
"OMA","Concordia","TABUENCA","9178/22","GARCILAZO, CATALINA NOEMI","SU DENUNCIA",NA,"CONCORDIA -Fiscalia N° 9 (Dra. Elias Mariana)",2022-09-20
"OMA","Concordia","TABUENCA","8367/22","HUERGO, OSCAR ALEJANDRO Y CACERES, SANDRA RAQUEL","DENUNCIAS","49 años","CONCORDIA -Fiscalia N° 3 (Dr. Nuñez Martin)",2022-09-01
"OMA","Concordia","TABUENCA","9518/22","MARIANI, NANCY ELIZABETH","SU DENUNCIA","20 años","CONCORDIA -Fiscalia N° 9 (Dra. Elias Mariana)",2022-09-28
"OMA","Concordia","TABUENCA","8354/22","MARTINEZ, RUBEN EDUARDO","SU DENUNCIA","20 años","CONCORDIA -Fiscalia Aux N° 1 (Dr. Azcué)",2022-09-05
"OMA","Concordia","TABUENCA","9504/22","MAYDANA, YOLANDA ESTHER","SU DENUNCIA",NA,"CONCORDIA -Fiscalia N° 9 (Dra. Elias Mariana)",2022-09-30
"OMA","Concordia","TABUENCA","9285/22","MIÑO, RITA ALEJANDRA Y DELGADO, NICOLAS JAVIER","DENUNCIAS","25 años","CONCORDIA -Fiscalia N° 9 (Dra. Elias Mariana)",2022-09-26
"OMA","Concordia","TABUENCA","8358/22","NAVARRO, LUCIA DEL CARMEN","SU DENUNCIA","17 años","CONCORDIA -Fiscalia N° 9 (Dra. Elias Mariana)",2022-09-01
"OMA","Concordia","TABUENCA","8887/22","PEREZ, LORENA CRISTINA","SU DENUNCIA","43 años","CONCORDIA -Fiscalia N° 9 (Dra. Elias Mariana)",2022-09-12
"OMA","Concordia","TABUENCA","8630/22","RIVERO, ORLANDO","SU DENUNCIA","20 años","CONCORDIA -Fiscalia N° 9 (Dra. Elias Mariana)",2022-09-08
"OMA","Concordia","TABUENCA","9062/22","ROJAS, LUCIANO","SU DENUNCIA","22 años","CONCORDIA -Fiscalia N° 9 (Dra. Elias Mariana)",2022-09-19
"OMA","Concordia","TABUENCA","9432/22","VIERA, NORMA BEATRIZ","SU DENUNCIA","17 años","CONCORDIA -Fiscalia N° 9 (Dra. Elias Mariana)",2022-09-27
"OMA","Concordia","TABUENCA","8426/22","VIRJAN, JOSE MARIA Y BONAZOLA, ADRIANA MATILDE","DENUNCIAS","46 años","CONCORDIA -Fiscalia Aux N° 1 (Dr. Azcué)",2022-09-07
"OMA","Concordia","TABUENCA","8362/22","WOLFERT, MELINA DENISE","SU DENUNCIA","24 años","CONCORDIA -Fiscalia N° 9 (Dra. Elias Mariana)",2022-09-01
"OMA","Concordia","TURLETTI","8363/22","ALFONSO, PATRICIA ALEJANDRA","SU DENUNCIA",NA,"CONCORDIA -Fiscalia N° 9 (Dra. Elias Mariana)",2022-09-01
"OMA","Concordia","TURLETTI","8196/22","BONAZOLA, ADRIANA MATILDE / RAMIREZ, ANA GRISELDA / VALLEJOS, AGUSTIN","DENUNCIAS","20 años","CONCORDIA -Fiscalia Aux N° 1 (Dr. Azcué)",2022-09-05
"OMA","Concordia","TURLETTI","9367/22","CARBALLO, DAIANA ANTONELLA","SU DENUNCIA","65 años","CONCORDIA -Fiscalia N° 9 (Dra. Elias Mariana)",2022-09-26
"OMA","Concordia","TURLETTI","8759/22","ESTECHE, MARIA BELEN","SU DENUNCIA","27 años","CONCORDIA -Fiscalia N° 9 (Dra. Elias Mariana)",2022-09-08
"OMA","Concordia","TURLETTI","8995/22","GRABOIS, EDUARDO ANIBAL Y ROJAS, VALERIA ROMINA","SU DENUNCIA","32 años","CONCORDIA -Fiscalia Aux N° 2 (Dra. Daniela Montangie)",2022-09-16
"OMA","Concordia","TURLETTI","9501/22","HANSEN LOPEZ, JOSE MARIA","SU DENUNCIA","26 años","CONCORDIA -Fiscalia N° 9 (Dra. Elias Mariana)",2022-09-30
"OMA","Concordia","TURLETTI","8368/22","MEDINA, LUCAS ALEXIS","SU DENUNCIA","25 años","CONCORDIA -Fiscalia N° 9 (Dra. Elias Mariana)",2022-09-01
"OMA","Concordia","TURLETTI","9319/22","NEWTON SOSA, JONATAN ENRIQUE","SU DENUNCIA",NA,"CONCORDIA -Fiscalia N° 9 (Dra. Elias Mariana)",2022-09-28
"OMA","Concordia","TURLETTI","8991/22","NUÑEZ, LOANA MARLENE","SU DENUNCIA","3454056967","CONCORDIA -Fiscalia N° 9 (Dra. Elias Mariana)",2022-09-16
"OMA","Concordia","TURLETTI","8515/22","REGUERA, MARIA MARTA","SU DENUNCIA","18 años","CONCORDIA -Fiscalia N° 9 (Dra. Elias Mariana)",2022-09-06
"OMA","Concordia","TURLETTI","9193/22","SANDOVAL, GABRIELA ELISA Y ACOSTA, FLAVIA PATRICIA","SU DENUNCIA","35 años","CONCORDIA -Fiscalia N° 9 (Dra. Elias Mariana)",2022-09-22
"OMA","Concordia","TURLETTI","9183/22","SEGOVIA, HECTOR ANTONIO Y SEGOVIA, JORGE RAFAEL","DENUNCIAS","33 años","CONCORDIA -Fiscalia N° 9 (Dra. Elias Mariana)",2022-09-20
"OMA","Concordia","TURLETTI","8621/22","SILVA, MARIA","SU DENUNCIA","27 años","CONCORDIA -Fiscalia N° 9 (Dra. Elias Mariana)",2022-09-09
"OMA","Concordia","TURLETTI","9043/22","SILVA, WALTER DARIO","SU DENUNCIA","42 años","CONCORDIA -Fiscalia N° 9 (Dra. Elias Mariana)",2022-09-19
"OMA","Concordia","TURLETTI","8205/22","TEJERA, ANA MARIA","SU DENUNCIA","55 años","CONCORDIA -Fiscalia Aux N° 1 (Dr. Azcué)",2022-09-07
"OMA","Concordia","TURLETTI","8846/22","TRINIDAD, MARIA DEL CARMEN / ALDECOA, JUAN MARTIN","SU DENUNCIA","35 años","CONCORDIA -Fiscalia N° 9 (Dra. Elias Mariana)",2022-09-12
"OMA","Concordia","TURLETTI","8366/22","VEGA, SEBASTIAN ANTONIO; LENCINA, ADRIAN MARCELO Y LENCINA, XIMENA MAGALI","DENUNCIAS","40 años","CONCORDIA -Fiscalia N° 9 (Dra. Elias Mariana)",2022-09-01
"OMA","Federación","BASTOS","10261 IPP","ACTUACIONES  REMITIDAS POR EL JUZGADO DE GARANTÍAS","DENUNCIA",NA,"Fiscalía de la ciudad de Federación",2022-09-01
"OMA","Federación","BASTOS","8632 IPP","AGUIRRE DANIEL EDUARDO","SU DENUNCIA",NA,"Fiscalía de la ciudad de Federación",2022-09-01
"OMA","Federación","BASTOS","15749 IPP","ALARCON CLAUDIA MABEL","SU DENUNCIA",NA,NA,2022-09-22
"OMA","Federación","BASTOS","14083 IPP","CENTURION PAMELA SOLEDAD","SU DENUNCIA",NA,"Fiscalía de la ciudad de Federación",2022-09-01
"OMA","Federación","BASTOS","15753 IPP","CENTURION, MARCOS ANDRES","SU DENUNCIA",NA,"Fiscalía de la ciudad de Federación",2022-09-22
"OMA","Federación","BASTOS","14120 IPP","ECHENAUSE, MARTIN IGNACIO","SU DENUNCIA",NA,"Fiscalía de la ciudad de Federación",2022-09-01
"OMA","Federación","BASTOS","9687 IPP","FERREYRA PATRICIA CLAUDIA","SU DENUNCIA",NA,"Fiscalía de la ciudad de Federación",2022-09-01
"OMA","Federación","BASTOS","10137 IPP","FERREYRA, LEONARDO MARTIN","SU DENUNCIA",NA,"Fiscalía de la ciudad de Federación",2022-09-01
"OMA","Federación","BASTOS","13581 IPP","GLIKTEIN PABLO","SU DENUNCIA",NA,"Fiscalía de la ciudad de Federación",2022-09-01
"OMA","Federación","BASTOS","13573 IPP","GOLDSMID BERNARDO","SU DENUNCIA",NA,NA,2022-09-01
"OMA","Federación","BASTOS","15261 IPP","GONZALEZ, MILAGROS NAHIR","SU DENUNCIA",NA,"Fiscalía de la ciudad de Federación",2022-09-01
"OMA","Federación","BASTOS","7107 IPP","GRIEVE JORGE ANTONIO y GRIEVE FRANCO GABRIEL","ROBO",NA,"Fiscalía de la ciudad de Federación",2022-09-01
"OMA","Federación","BASTOS","10103 IPP","LOPEZ LAUTARO NAHUEL","SU DENUNCIA",NA,"Fiscalía de la ciudad de Federación",2022-09-01
"OMA","Federación","BASTOS","15718 IPP","LOVATTO ULISES OSCAR","SU DENUNCIA",NA,"Fiscalía de la ciudad de Federación",2022-09-09
"OMA","Federación","BASTOS","15689 IPP","MACCARRONE, JESICA SOL","SU DENUNCIA",NA,"Fiscalía de la ciudad de Federación",2022-09-23
"OMA","Federación","BASTOS","15735 IPP","MOREL VICTOR HUGO","SU DENUNCIA",NA,"Fiscalía de la ciudad de Federación",2022-09-22
"OMA","Federación","BASTOS","15719 IPP","NAVARRO SERGIO JOAQUIN","SU DENUNCIA",NA,"Fiscalía de la ciudad de Federación",2022-09-09
"OMA","Federación","BASTOS","15723 IPP","ORCELLET, MARIA LAURA","SU DENUNCIA",NA,"Fiscalía de la ciudad de Federación",2022-09-16
"OMA","Federación","BASTOS","15711 IPP","PALACIOS NORMA BEATRIZ","SU DENUNCIA",NA,"Fiscalía de la ciudad de Federación",2022-09-16
"OMA","Federación","BASTOS","10331 IPP","PEREYRA TAMARA PAOLA Y SALAZAR JESICA ANTONELLA","SU DENUNCIA",NA,"Fiscalía de la ciudad de Federación",2022-09-01
"OMA","Federación","BASTOS","13358 IPP","PETELIN, TERESA SARA","SU DENUNCIA",NA,"Fiscalía de la ciudad de Federación",2022-09-19
"OMA","Federación","BASTOS","15741 IPP","RASTELLI, MARIA AGOSTINA","SU DENUNCIA",NA,"Fiscalía de la ciudad de Federación",2022-09-22
"OMA","Federación","BASTOS","15720 IPP","RUIZ DIAZ BRUNO DAVID","SU DENUNCIA",NA,"Fiscalía de la ciudad de Federación",2022-09-09
"OMA","Federación","BASTOS","15717 IPP","SOSA LUCAS DAVID","SU DENUNCIA",NA,"Fiscalía de la ciudad de Federación",2022-09-09
"OMA","Federación","BASTOS","15643 IPP","YAMBRUCIC, CLAUDIA MARIA","SU DENUNCIA",NA,"Fiscalía de la ciudad de Federación",2022-09-01
"OMA","Feliciano","RODRIGUEZ","LEG644/22","BARRETO ALAN GEREMIAS","SU DENUNCIA",NA,NA,2022-09-09
"OMA","Feliciano","RODRIGUEZ","LEG5075","BENITEZ ANTONELLA  ALEJANDRA","HURTO",NA,NA,2022-09-09
"OMA","Feliciano","RODRIGUEZ","LEG536/22","BERMUDEZ MARIA ROSA","SU DENUNCIA",NA,NA,2022-09-14
"OMA","Feliciano","RODRIGUEZ","LEG663/22","BERON BARBARA","SU DENUNCIA",NA,NA,2022-09-14
"OMA","Feliciano","RODRIGUEZ","LEG694/22","BONET EXEQUIEL ANDRES","SU DENUNCIA",NA,NA,2022-09-21
"OMA","Feliciano","RODRIGUEZ","LEG597/22","BUEDE MARIA JOSE","DEFRAUDACION",NA,NA,2022-09-09
"OMA","Feliciano","RODRIGUEZ","LEG643/22","DE OFICIO POLICIAL PARA ESTABLECER FORMA Y CIRCUNSTANCIA EN QUE RESULTARA CON LESIONES DE CARACTER GRAVE ROCIO GALVEZ Y CON LESIONES DE CARACTER LEVE DOMINGUEZ MARA ISABEL","INSTRUCCION",NA,NA,2022-09-09
"OMA","Feliciano","RODRIGUEZ","LEG3814","DE OFICIO POLICIAL PARA ESTABLECER FORMAS Y CIRCUNSTNACIAS EN QUE RESLTARA CON LESIONES GRAVES IMPRUDENTES JUAN CARLOS QUIROZ EN SINIETRO VEHCULAR","INSTRUCCION",NA,NA,2022-09-28
"OMA","Feliciano","RODRIGUEZ","LEG574/22","DE OFICIO POLICIAL POR EL SUPUESTO DELITO DE DAÑOS A BIENES DEL ESTADO POR LOS MENORES DE EDAD VALDEZ MELINA Y CERRUDO NICOLAS","INSTRUCCION",NA,NA,2022-09-22
"OMA","Feliciano","RODRIGUEZ","LEG687/22","DIEGO OSCAR VEGA","LESIONES LEVES",NA,NA,2022-09-16
"OMA","Feliciano","RODRIGUEZ","LEG624/22","DOMINGUEZ JOSE RAMON ALEJANDRO","SU DENUNCIA",NA,NA,2022-09-24
"OMA","Feliciano","RODRIGUEZ","LEG658/22","FERNANDEZ IVES JORGE ARIEL- LUQUE CRISTIAN GUILLERMO- PEREYRA LUIS IVAN- LUQUE MARIANO","RESISTENCIA A LA AUTORIDAD",NA,NA,2022-09-16
"OMA","Feliciano","RODRIGUEZ","LEG692/22","MAROTE ENRIQUE LORENZO","SU DENUNCIA",NA,NA,2022-09-26
"OMA","Feliciano","RODRIGUEZ","LEG1933","MOLNA SERVILIANO (a) TOTO","AMENAZAS CALIFICADAS",NA,NA,2022-09-28
"OMA","Feliciano","RODRIGUEZ","LEG637/22","MUÑOZ JOAQUIN ALEJANDRO","SU DENUNCIA",NA,NA,2022-09-09
"OMA","Feliciano","RODRIGUEZ","LEG678/22","PESOA  ANDREA","SU DENUNCIA",NA,NA,2022-09-16
"OMA","Feliciano","RODRIGUEZ","LEG704/22","SCALDAFERRO JOSE SALVADOR","SU DENUNCIA",NA,NA,2022-09-28
"OMA","Feliciano","RODRIGUEZ","LEG621/22","VALDEZ FABIO DANIEL","SU DENUNCIA",NA,NA,2022-09-09
"OMA","Feliciano","RODRIGUEZ","LEG634/22","VEGA DIEGO HORACIO","SU DENUNCIA",NA,NA,2022-09-20
"OMA","Feliciano","RODRIGUEZ","LEG599/22","VERA LUCRECIA NOEMI","SU DENUNCIA",NA,NA,2022-09-21
"OMA","Feliciano","RODRIGUEZ","LEG653/22","VILLALBA PABLO GABRIEL- BENITEZ CLARA","DENUNCIAS",NA,NA,2022-09-19
"OMA","Gualeguay","AHIBE","37133-M","ALBORNOZ OLGA MARCELA","DENUNCIA",NA,NA,2022-09-14
"OMA","Gualeguay","AHIBE","37415-M","ANDRADA CESAR","DENUNCIA",NA,NA,2022-09-14
"OMA","Gualeguay","AHIBE","37659-M","ANTUNEZ SELVA MARINA","DENUNCIA",NA,NA,2022-09-27
"OMA","Gualeguay","AHIBE","37670-M","BARRETO NATALI JAQUELINE","DENUNCIA",NA,NA,2022-09-28
"OMA","Gualeguay","AHIBE","37478-M","BARRIOS NAZARENO","INFRACCION A LA LEY Nº 13.944 (Incump. Deberes Asistencia Fliar.)",NA,NA,2022-09-14
"OMA","Gualeguay","AHIBE","37048-M","BENITEZ MARIA LUCIA","DENUNCIA",NA,NA,2022-09-14
"OMA","Gualeguay","AHIBE","37647-M","BERON FLORENCIA CORINA","DENUNCIA",NA,NA,2022-09-27
"OMA","Gualeguay","AHIBE","37080-M","CAMAÑO CAMILA GUADALUPE","DENUNCIA",NA,NA,2022-09-14
"OMA","Gualeguay","AHIBE","37420-M","CARRIZO ANITA LIBERATA","DENUNCIA",NA,NA,2022-09-14
"OMA","Gualeguay","AHIBE","37275-M","CUESTA HORACIO MAXIMILIANO","DENUNCIA",NA,NA,2022-09-14
"OMA","Gualeguay","AHIBE","37404-M","FERNANDEZ VERONICA CONCEPCION","DENUNCIA",NA,NA,2022-09-14
"OMA","Gualeguay","AHIBE","37538-M","GALVAN MARIA SILVIA","DENUNCIA",NA,NA,2022-09-22
"OMA","Gualeguay","AHIBE","37632-M","GARCIA ALBERTO ISMAEL","DENUNCIA",NA,NA,2022-09-28
"OMA","Gualeguay","AHIBE","37671-M","GOMEZ GIMENA MARIA LUZ","DENUNCIA",NA,NA,2022-09-28
"OMA","Gualeguay","AHIBE","37389-M","GOMEZ MARIA SOLEDAD / BENITEZ ESTEFANIA MARIA","DENUNCIAS",NA,NA,2022-09-08
"OMA","Gualeguay","AHIBE","37424-M","GONZALEZ ANA MARIA","DENUNCIA",NA,NA,2022-09-14
"OMA","Gualeguay","AHIBE","37495-M","GONZALEZ VANINA  ALEJANDRA","DENUNCIA",NA,NA,2022-09-28
"OMA","Gualeguay","AHIBE","37439-M","GONZALEZ VANINA  ALEJANDRA","DENUNCIA",NA,NA,2022-09-27
"OMA","Gualeguay","AHIBE","37572-M","LAPALMA LUCIO DARIO","INFRACCION A LA LEY Nº 13.944 (Incump. Deberes Asistencia Fliar.)",NA,NA,2022-09-28
"OMA","Gualeguay","AHIBE","37648-M","LENCINA MARIA ROSA","DENUNCIA",NA,NA,2022-09-28
"OMA","Gualeguay","AHIBE","37192-M","MARTINEZ BARBARA PRISCILA","DENUNCIA",NA,NA,2022-09-08
"OMA","Gualeguay","AHIBE","37388-M","MARTINEZ MARIA VANESA - CEBALLOS GRACIELA ISABEL","DENUNCIAS",NA,NA,2022-09-14
"OMA","Gualeguay","AHIBE","37454-M","MATORRA NATALIA EVANGELINA","DENUNCIA",NA,NA,2022-09-14
"OMA","Gualeguay","AHIBE","37496-M","MATTOS EXEQUIEL  MARTIN","DENUNCIA",NA,NA,2022-09-28
"OMA","Gualeguay","AHIBE","37426-M","MOSCARDINI DAIANA STEFANIA","DENUNCIA",NA,NA,2022-09-14
"OMA","Gualeguay","AHIBE","37577-M","PEREZ LUCIA MABEL","DENUNCIA",NA,NA,2022-09-28
"OMA","Gualeguay","AHIBE","37067-M","PEREZ VANESA LORENA","DENUNCIA",NA,NA,2022-09-14
"OMA","Gualeguay","AHIBE","37604-M","PIAGGIO HILDA BEATRIZ - PIAGGIO XIMENA  ANTONIA","DENUNCIAS",NA,NA,2022-09-28
"OMA","Gualeguay","AHIBE","37600-M","PORTALUPPI DAMIAN ARIEL","DENUNCIA",NA,NA,2022-09-28
"OMA","Gualeguay","AHIBE","37342-M","RUPANI LILIANA NOEMI","DENUNCIA",NA,NA,2022-09-14
"OMA","Gualeguay","AHIBE","37406-M","SISERONE JORGE JUAN","DENUNCIA",NA,NA,2022-09-14
"OMA","Gualeguay","AHIBE","37400-M","TERI ENZO NAHUEL","DAÑO",NA,NA,2022-09-14
"OMA","Gualeguay","AHIBE","37569-M","VELAZQUEZ NORMA BEATRIZ","DENUNCIA",NA,NA,2022-09-28
"OMA","Gualeguaychú","GARAY","5302/22","BENITEZ, ALEXANDER JESUS Y CACERES GABRIEL ANGEL","SU DENUNCIA",NA,"GUALEGUAYCHU - FISCALIA AUXILIAR N°4",2022-09-30
"OMA","Gualeguaychú","GARAY","6074/22","CARDINAUX, MARTA ESTER","SU DENUNCIA",NA,"GUALEGUAYCHU - FISCALIA AUXILIAR N°5",2022-09-28
"OMA","Gualeguaychú","GARAY","5636/22","CARMONA, MARIA CRISTINA","SU DENUNCIA",NA,"GUALEGUAYCHU - FISCALIA AUXILIAR N°1",2022-09-16
"OMA","Gualeguaychú","GARAY","5749/22","CASTRO, MARIA CRISTINA","SU DENUNCIA",NA,"GUALEGUAYCHU - FISCALIA AUXILIAR N°2",2022-09-28
"OMA","Gualeguaychú","GARAY","5388/22","COOPERATIVA DE CONSUMO DE ELECTRICIDAD Y AFINES DE GCHU","SU DENUNCIA",NA,NA,2022-09-21
"OMA","Gualeguaychú","GARAY","5387/22","COOPERATIVA DE CONSUMO DE ELECTRICIDAD Y AFINES GCHU","SU DENUNCIA",NA,NA,2022-09-23
"OMA","Gualeguaychú","GARAY","A756/22","CORNETTA, NOELIA SOLEDAD","SU DENUNCIA",NA,"GUALEGUAYCHU - FISCALIA",2022-09-01
"OMA","Gualeguaychú","GARAY","4478/22","CRESPO, DANIEL ADOLFO","SU DENUNCIA",NA,"GUALEGUAYCHU - FISCALIA AUXILIAR N°3",2022-09-09
"OMA","Gualeguaychú","GARAY","5691/22","DELCANTO, ABEL HORACIO","SU DENUNCIA",NA,"GUALEGUAYCHU - FISCALIA AUXILIAR N°1",2022-09-22
"OMA","Gualeguaychú","GARAY","2584/22","DELGADO, ENRIQUE DANIEL","SU DENUNCIA",NA,"GUALEGUAYCHU - FISCALIA AUXILIAR N°1",2022-09-19
"OMA","Gualeguaychú","GARAY","5874/22","GARCIA GONZALEZ, MARIO HIPOLITO","SU DENUNCIA",NA,NA,2022-09-27
"OMA","Gualeguaychú","GARAY","5259/22","GUERRERO, MARIA RUFINA","SU DENUNCIA",NA,"GUALEGUAYCHU - FISCALIA AUXILIAR N°4",2022-09-14
"OMA","Gualeguaychú","GARAY","5992/22","HERNANDEZ, PABLO RAFAEL","SU DENUNCIA",NA,"GUALEGUAYCHU - FISCALIA AUXILIAR N°5",2022-09-26
"OMA","Gualeguaychú","GARAY","5426/22","JAUREGUIBERRY, CINTIA GISELA","SU DENUNCIA",NA,NA,2022-09-01
"OMA","Gualeguaychú","GARAY","5946/22","LOPEZ, NORMA GRACIELA - ROBLES, JUAN CARLOS","RECIPROCAS",NA,NA,2022-09-23
"OMA","Gualeguaychú","GARAY","5402/22","LOPEZ, RAMON ANGEL","SU DENUNCIA",NA,NA,2022-09-22
"OMA","Gualeguaychú","GARAY","5401/22","LOPEZ, RAMON ANGEL","SU DENUNCIA",NA,NA,2022-09-21
"OMA","Gualeguaychú","GARAY","A1073/22","LUCERNA, SANDRA ROXANA","SU DENUNCIA",NA,"GUALEGUAYCHU - FISCALIA",2022-09-30
"OMA","Gualeguaychú","GARAY","5207/22","MARTINEZ, ANDREA CAROLINA Y ROJAS, CLAUDIA RENEE","SU DENUNCIA",NA,"GUALEGUAYCHU - FISCALIA AUXILIAR N°3",2022-09-14
"OMA","Gualeguaychú","GARAY","5552/22","OLIVERA, ANA GRISELDA","SU DENUNCIA",NA,"GUALEGUAYCHU - FISCALIA AUXILIAR N°5",2022-09-05
"OMA","Gualeguaychú","GARAY","5976/22","OSUNA, SUSANA BEATRIZ","SU DENUNCIA",NA,"GUALEGUAYCHU - FISCALIA AUXILIAR N°5",2022-09-23
"OMA","Gualeguaychú","GARAY","8158/22","OTERO HECTOR PAULINO","SU DENUNCIA",NA,NA,2022-09-12
"OMA","Gualeguaychú","GARAY","5458/22","PAYERO, PABLO ANDRES","ACTUACIONES DE OFICIO",NA,"GUALEGUAYCHU - FISCALIA AUXILIAR N°5",2022-09-16
"OMA","Gualeguaychú","GARAY","4686/22","PERA, RAMON ARGENTINO","SU DENUNCIA",NA,"GUALEGUAYCHU - FISCALIA AUXILIAR N°5",2022-09-30
"OMA","Gualeguaychú","GARAY","5321/22","PERALTA, GRACIELA NOEMI","SU DENUNCIA",NA,"GUALEGUAYCHU - FISCALIA AUXILIAR N°4",2022-09-05
"OMA","Gualeguaychú","GARAY","3718/22","PONCE, MARIA JOSE Y OTRA","RECIPROCAS",NA,"GUALEGUAYCHU - FISCALIA AUXILIAR N°3",2022-09-07
"OMA","Gualeguaychú","GARAY","A41/22","REJMAN, YOLANDA CELIA","SU DENUNCIA",NA,"GUALEGUAYCHU - FISCALIA",2022-09-12
"OMA","Gualeguaychú","GARAY","2904/21","RETAMOSA, ANGEL DANIEL","SU DENUNCIA",NA,NA,2022-09-20
"OMA","Gualeguaychú","GARAY","5560/22","RODRIGUEZ, TAMARA","SU DENUNCIA",NA,"GUALEGUAYCHU - FISCALIA AUXILIAR N°5",2022-09-08
"OMA","Gualeguaychú","GARAY","5778/22","SAAVEDRA, JAVIER ENRIQUE","SU DENUNCIA",NA,"GUALEGUAYCHU - FISCALIA AUXILIAR N°1",2022-09-19
"OMA","Gualeguaychú","GARAY","5800/22","SENESTRARI, MONICA BEATRIZ","LESIONES",NA,"GUALEGUAYCHU - FISCALIA AUXILIAR N°2",2022-09-20
"OMA","Gualeguaychú","GARAY","4868/22","SITTNER, JUAN JORGE","LESIONES",NA,"GUALEGUAYCHU - FISCALIA AUXILIAR N°1",2022-09-27
"OMA","Gualeguaychú","GARAY","1785/22","SOSA, LUIS MARIA","SU DENUNCIA",NA,"GUALEGUAYCHU - FISCALIA AUXILIAR N°2",2022-09-07
"OMA","Gualeguaychú","GARAY","4357/22","TRAVERSO, TAMARA JESICA","SU DENUNCIA",NA,"GUALEGUAYCHU - FISCALIA AUXILIAR N°3",2022-09-27
"OMA","Gualeguaychú","GOMEZ","5705/22","ARCE, ANGEL MARTIN","SU DENUNCIA",NA,"GUALEGUAYCHU - FISCALIA AUXILIAR N°1",2022-09-16
"OMA","Gualeguaychú","GOMEZ","5977/22","BALSANYAQUE, MAXIMILIANO","SU DENUNCIA",NA,"GUALEGUAYCHU - FISCALIA AUXILIAR N°5",2022-09-23
"OMA","Gualeguaychú","GOMEZ","4355/22","BELEN, MATIAS JOSE","SU DENUNCIA",NA,"GUALEGUAYCHU - FISCALIA AUXILIAR N°3",2022-09-26
"OMA","Gualeguaychú","GOMEZ","5180/22","CALVEYRA, CARLOS ALEJANDRO","SU DENUNCIA",NA,"GUALEGUAYCHU - FISCALIA AUXILIAR N°3",2022-09-05
"OMA","Gualeguaychú","GOMEZ","8142/22","CARBALLO, MARIA ELIZABETH","SU DENUNCIA",NA,NA,2022-09-22
"OMA","Gualeguaychú","GOMEZ","5527/22","CARMINA, JUAN JOSE","SU DENUNCIA",NA,"GUALEGUAYCHU - FISCALIA AUXILIAR N°5",2022-09-09
"OMA","Gualeguaychú","GOMEZ","5383/22","DAHUC, HAMUD LUCIANO","SU DENUNCIA",NA,"GUALEGUAYCHU - FISCALIA AUXILIAR N°5",2022-09-05
"OMA","Gualeguaychú","GOMEZ","5353/22","DOLCHE, CRISTINA GRACIELA Y OTROS","ACTUACIONES DE OFICIO",NA,"GUALEGUAYCHU - FISCALIA AUXILIAR N°4",2022-09-06
"OMA","Gualeguaychú","GOMEZ","4325/22","FERNANDEZ, LORENA PAULA","SU DENUNCIA",NA,"GUALEGUAYCHU - FISCALIA AUXILIAR N°2",2022-09-21
"OMA","Gualeguaychú","GOMEZ","2779/20","FERNANDEZ, RODRIGO","SU DENUNCIA",NA,"GUALEGUAYCHU - FISCALIA AUXILIAR N°3",2022-09-16
"OMA","Gualeguaychú","GOMEZ","6035/22","FRAVEGA, ANDREA FABIANA","SU DENUNCIA",NA,"GUALEGUAYCHU - FISCALIA AUXILIAR N°5",2022-09-27
"OMA","Gualeguaychú","GOMEZ","5176/22","HEIDEL, JONATHAN ROBERTO Y SPIAZZI, HORACIO MARTIN","SU DENUNCIA",NA,"GUALEGUAYCHU - FISCALIA AUXILIAR N°3",2022-09-20
"OMA","Gualeguaychú","GOMEZ","3856/21","JARA, JIMENA","SU DENUNCIA",NA,"GUALEGUAYCHU - FISCALIA AUXILIAR N°5",2022-09-06
"OMA","Gualeguaychú","GOMEZ","8178/22","LEIVA CARLOS HUGO","SU DENUNCIA",NA,NA,2022-09-23
"OMA","Gualeguaychú","GOMEZ","8124/22","LOPEZ GEORGINA NATALI","SU DENUNCIA",NA,NA,2022-09-12
"OMA","Gualeguaychú","GOMEZ","1250/22","MARTINEZ, MAURO GASTON","SU DENUNCIA",NA,"GUALEGUAYCHU - FISCALIA AUXILIAR N°3",2022-09-09
"OMA","Gualeguaychú","GOMEZ","5058/21","MORAN Y RISSO, HUGO OMAR Y OTRA","LESIONES",NA,"GUALEGUAYCHU - FISCALIA AUXILIAR N°3",2022-09-23
"OMA","Gualeguaychú","GOMEZ","5271/22","NORIEGA, ANA MARISOL","SU DENUNCIA",NA,"GUALEGUAYCHU - FISCALIA AUXILIAR N°4",2022-09-14
"OMA","Gualeguaychú","GOMEZ","5461/22","PAEZ, CARLOS MARÍA","SU DENUNCIA",NA,"GUALEGUAYCHU - FISCALIA AUXILIAR N°5",2022-09-28
"OMA","Gualeguaychú","GOMEZ","4784/22","PARRILLA, MIGUEL ALFREDO","SU DENUNCIA",NA,"GUALEGUAYCHU - FISCALIA AUXILIAR N°4",2022-09-01
"OMA","Gualeguaychú","GOMEZ","8151/22","PEQUERA NESTOR ISMAEL","SU DENUNCIA",NA,"VILLA PARANACITO - FISCALIA AUXILIAR",2022-09-09
"OMA","Gualeguaychú","GOMEZ","1635/22","PESCE, JUAN PABLO","SU DENUNCIA",NA,"GUALEGUAYCHU - FISCALIA AUXILIAR N°1",2022-09-30
"OMA","Gualeguaychú","GOMEZ","3713/22","PETIZCO, MARTA CRISTINA","SU DENUNCIA",NA,"GUALEGUAYCHU - FISCALIA AUXILIAR N°3",2022-09-27
"OMA","Gualeguaychú","GOMEZ","2161/22","PEVERELLI, ERNA MARIA","SU DENUNCIA",NA,"GUALEGUAYCHU - FISCALIA AUXILIAR N°4",2022-09-07
"OMA","Gualeguaychú","GOMEZ","A1049/22","PICCINI, MATIAS","SU DENUNCIA",NA,NA,2022-09-21
"OMA","Gualeguaychú","GOMEZ","1045/22","RAMOS,  BRISA","SU DENUNCIA",NA,"GUALEGUAYCHU - FISCALIA AUXILIAR N°3",2022-09-08
"OMA","Gualeguaychú","GOMEZ","5448/22","RETAMAR, ROBERTO RAMON","SU DENUNCIA",NA,"GUALEGUAYCHU - FISCALIA AUXILIAR N°5",2022-09-12
"OMA","Gualeguaychú","GOMEZ","5316/22","REYNOSO, MARIA JOSE","SU DENUNCIA",NA,"GUALEGUAYCHU - FISCALIA AUXILIAR N°4",2022-09-30
"OMA","Gualeguaychú","GOMEZ","5377/22","RIVERO, PABLO ANDRES Y OTRO","LESIONES",NA,"GUALEGUAYCHU - FISCALIA AUXILIAR N°4",2022-09-14
"OMA","Gualeguaychú","GOMEZ","A1072/22","RODRIGUEZ, MATIAS DAMIAN","SU DENUNCIA",NA,"GUALEGUAYCHU - FISCALIA",2022-09-30
"OMA","Gualeguaychú","GOMEZ","5827/22","SANCHEZ, GISELA MARIA","SU DENUNCIA",NA,"GUALEGUAYCHU - FISCALIA AUXILIAR N°2",2022-09-23
"OMA","Gualeguaychú","GOMEZ","5517/22","TERZA, MIRTA RAQUEL","SU DENUNCIA",NA,"GUALEGUAYCHU - FISCALIA AUXILIAR N°5",2022-09-07
"OMA","Gualeguaychú","GOMEZ","A1021/22","TORRILLA, JORGE GUILLERMO","SU DENUNCIA",NA,"GUALEGUAYCHU - FISCALIA",2022-09-19
"OMA","Gualeguaychú","GOMEZ","5837/22","VARGAS, YASMIN NOEMI","SU DENUNCIA",NA,"GUALEGUAYCHU - FISCALIA AUXILIAR N°2",2022-09-26
"OMA","Gualeguaychú","GOMEZ","4063/22","VERA, NICOLAS AGUSTIN","SU DENUNCIA",NA,"GUALEGUAYCHU - FISCALIA AUXILIAR N°5",2022-09-21
"OMA","Gualeguaychú","GOMEZ","5071/22","VILLANUEVA, DANIELA CELESTE Y VILLANUEVA, SEBASTIAN DARIO","SU DENUNCIA",NA,"GUALEGUAYCHU - FISCALIA AUXILIAR N°3",2022-09-19
"OMA","La Paz","MILLAN","F19986","ALDERETE Cristian Alberto","AMENAZAS",NA,NA,2022-09-22
"OMA","La Paz","MILLAN","F18956","ALVAREZ Nestor Fabian","DAÑO",NA,NA,2022-09-09
"OMA","La Paz","MILLAN","F18731","AREVALO Gustavo Raúl","HURTO",NA,NA,2022-09-09
"OMA","La Paz","MILLAN","F18261","ARIAS Sofia Isolina","HURTO",NA,NA,2022-09-06
"OMA","La Paz","MILLAN","F23241","BALCAZA Macarena Soraya - RIQUELME Ramona María Eugenia","LESIONES",NA,NA,2022-09-01
"OMA","La Paz","MILLAN","F18613","BERNARDEZ Osvaldo Ariel","AMENAZAS",NA,NA,2022-09-09
"OMA","La Paz","MILLAN","F18556","BOGADO Sasha Dahiana","LESIONES",NA,NA,2022-09-09
"OMA","La Paz","MILLAN","F23249","BOGGIA  Adriana Ester","AMENAZAS",NA,NA,2022-09-01
"OMA","La Paz","MILLAN","F18772","BOLOGNINI Rosa Gabriela","AMENAZAS",NA,NA,2022-09-07
"OMA","La Paz","MILLAN","F23048","CARDOZO Jose Alberto","USURPACION",NA,NA,2022-09-30
"OMA","La Paz","MILLAN","F23218","CARDOZO Jose Alberto - VELAZQUEZ Marcelino","USURPACION",NA,NA,2022-09-05
"OMA","La Paz","MILLAN","F19472","CARDOZO María Angélica","LESIONES",NA,NA,2022-09-08
"OMA","La Paz","MILLAN","F23467","CARDOZO Oriana Ailen","AMENAZAS",NA,NA,2022-09-23
"OMA","La Paz","MILLAN","F19050","CEJAS Joel Eduardo","VIOLACION DE DOMICILIO",NA,NA,2022-09-09
"OMA","La Paz","MILLAN","F23257","CUENCA  Jesica Noelia","LESIONES",NA,NA,2022-09-12
"OMA","La Paz","MILLAN","F20494","CUENCA Monica Daniela","LESIONES LEVES",NA,NA,2022-09-26
"OMA","La Paz","MILLAN","F22743","DE OFICIO POLICIAL EN PERJUICIO DEL LOCAL COMERCIAL \"TECNO TENDENCIA\"","DAÑO",NA,NA,2022-09-22
"OMA","La Paz","MILLAN","F18725","DE OFICIO POR EL DELITO DE DAÑO EN PERJUICIO DE Perez Macarena Romanela","DAÑO",NA,NA,2022-09-07
"OMA","La Paz","MILLAN","F18502","FERNANDEZ Graciela Noelia","AMENAZAS",NA,NA,2022-09-06
"OMA","La Paz","MILLAN","F21276","FISCHER Elizabeth Beatriz","ESTAFA",NA,NA,2022-09-22
"OMA","La Paz","MILLAN","F23027","FLORES María Luz","AMENAZAS",NA,NA,2022-09-30
"OMA","La Paz","MILLAN","F23332","FRETES Luis Alejandro","AMENAZAS",NA,NA,2022-09-12
"OMA","La Paz","MILLAN","F18708","GODOY Juan Diego","AMENAZAS",NA,NA,2022-09-01
"OMA","La Paz","MILLAN","F20399","GOMEZ Jesus Efrain","DAÑO",NA,NA,2022-09-21
"OMA","La Paz","MILLAN","F23200","GONZALEZ Manuel Isauro","LESIONES",NA,NA,2022-09-22
"OMA","La Paz","MILLAN","F19667","GONZALEZ Rosa Isabel","AMENAZAS",NA,NA,2022-09-16
"OMA","La Paz","MILLAN","F21230","LUGO Carlos Daniel","LESIONES",NA,NA,2022-09-12
"OMA","La Paz","MILLAN","F20085","MEDEINA  Ana Belen","AMENAZAS",NA,NA,2022-09-19
"OMA","La Paz","MILLAN","F20006","MEDINA Natanael Alejander","AMENAZAS",NA,NA,2022-09-19
"OMA","La Paz","MILLAN","F20001","MERLO Gisela","AMENAZAS",NA,NA,2022-09-19
"OMA","La Paz","MILLAN","F23422","MONZON Flavia Delia Sixta","DAÑO",NA,NA,2022-09-22
"OMA","La Paz","MILLAN","F19107","OROÑO Lucas David","LESIONES",NA,NA,2022-09-20
"OMA","La Paz","MILLAN","F18514","OSUNA Iara Clara","AMENAZAS",NA,NA,2022-09-13
"OMA","La Paz","MILLAN","F19985","PESOA  Luis Gerardo","ESTAFA",NA,NA,2022-09-20
"OMA","La Paz","MILLAN","F22935","PRESENTAU Claudia Bernarda","AMENAZAS",NA,NA,2022-09-14
"OMA","La Paz","MILLAN","F20046","RAMIREZ Araceli","LESIONES",NA,NA,2022-09-16
"OMA","La Paz","MILLAN","F23109","RECALDE Julia Tamara","LESIONES",NA,NA,2022-09-12
"OMA","La Paz","MILLAN","F20488","SANCHEZ Marcelo Patricio","DAÑO",NA,NA,2022-09-22
"OMA","La Paz","MILLAN","F18918","SIBOLDI Roberto German","ESTAFA",NA,NA,2022-09-06
"OMA","La Paz","MILLAN","F19132","STADELMANN Diana Pamela","AMENAZAS",NA,NA,2022-09-15
"OMA","La Paz","MILLAN","F19995","THOMAS Juan Carlos","ESTAFA",NA,NA,2022-09-23
"OMA","La Paz","MILLAN","F23312","VALENZUELA María Fernanda","AMENAZAS",NA,NA,2022-09-12
"OMA","La Paz","MILLAN","F20489","VALENZUELA Mario David","LESIONES",NA,NA,2022-09-22
"OMA","La Paz","MILLAN","F18665","VELAZQUEZ Maria del Carmen","LESIONES",NA,NA,2022-09-07
"OMA","La Paz","MILLAN","F19208","VERA  Juan Carlos","AMENAZAS",NA,NA,2022-09-13
"OMA","La Paz","MILLAN","F20104","VILLALBA Zulma Leticia","AMENAZAS",NA,NA,2022-09-19
"OMA","La Paz","MILLAN","F19468","VIVAS Claudia","DAÑO",NA,NA,2022-09-09
"OMA","La Paz","MILLAN","F18697","ZAPATA Camila Luana","AMENAZAS",NA,NA,2022-09-14
"OMA","Nogoyá","VIGNOLO","1450/22","AGUIRRE ADRIANA ESTER - CASTRO MARIA IRINA","DENUNCIAS",NA,NA,2022-09-30
"OMA","Nogoyá","VIGNOLO","1350/22","BERON HECTOR RAUL","LESIONES LEVES",NA,NA,2022-09-21
"OMA","Nogoyá","VIGNOLO","1325/22","CABRERA JOSE ENRIQUE","SU DENUNCIA",NA,NA,2022-09-14
"OMA","Nogoyá","VIGNOLO","1263/22","CASTILLO VÍCTOR ISMAEL","DENUNCIA",NA,NA,2022-09-13
"OMA","Nogoyá","VIGNOLO","1405/22","DEGANO ELBIO ANDRES","AMENAZAS",NA,NA,2022-09-21
"OMA","Nogoyá","VIGNOLO","1421/22","DEL VALLE DAIANA VANESA","DENUNCIA","Lali",NA,2022-09-30
"OMA","Nogoyá","VIGNOLO","1417/22","DIAZ SUSANA MARTA","ACTUACIONES DE OFICIO",NA,NA,2022-09-30
"OMA","Nogoyá","VIGNOLO","1445/22","DOMINGUEZ YOLANDA LUZ MILAGROS","DENUNCIA",NA,NA,2022-09-30
"OMA","Nogoyá","VIGNOLO","344/21","FARIAS LANFRANCO AILEN - LANFRANCO MIRIAM CRISTINA","DENUNCIA",NA,NA,2022-09-13
"OMA","Nogoyá","VIGNOLO","1316/22","FIGUEROA ANABEL","LESIONES",NA,NA,2022-09-13
"OMA","Nogoyá","VIGNOLO","1305/22","GHIRARDI LUCIANO JOEL - RUDEL BRUNO EZEQUIEL - CABRERA JUAN MANUEL - BATTAUZ YARI","AMENAZAS",NA,NA,2022-09-14
"OMA","Nogoyá","VIGNOLO","1298/22","GODOY ABRAHAM NICOLAS","AMENAZAS",NA,NA,2022-09-14
"OMA","Nogoyá","VIGNOLO","1313/22","GONZALEZ CARLOS ALEJANDRO","SU DENUNCIA",NA,NA,2022-09-14
"OMA","Nogoyá","VIGNOLO","1301/22","GRANADOS LUIS ALBERTO","DENUNCIA",NA,NA,2022-09-30
"OMA","Nogoyá","VIGNOLO","1389/22","LUNA JORGE DANIEL","DENUNCIA",NA,NA,2022-09-21
"OMA","Nogoyá","VIGNOLO","1282/22","LUNA SOFIA NATALI - NIEVA LETICIA ISABEL","DENUNCIAS",NA,NA,2022-09-22
"OMA","Nogoyá","VIGNOLO","560/21","MALDONEZ RAMON EDELMIRO","HURTO",NA,NA,2022-09-16
"OMA","Nogoyá","VIGNOLO","1252/22","MERLO MARCOS ANDRÉS","DENUNCIA",NA,NA,2022-09-14
"OMA","Nogoyá","VIGNOLO","1144/22","MITRIANI CESAR ENRIQUE","SU DENUNCIA",NA,"NOGOYA - FISCALIA",2022-09-09
"OMA","Nogoyá","VIGNOLO","1284/22","OCHOTECO MARCELO EMANUEL","DENUNCIA",NA,NA,2022-09-22
"OMA","Nogoyá","VIGNOLO","1314/22","PAEZ NANCY ADRIANA","SU DENUNCIA",NA,NA,2022-09-13
"OMA","Nogoyá","VIGNOLO","1402/22","RIVERO NELIDA CRISTINA","DENUNCIA",NA,NA,2022-09-30
"OMA","Nogoyá","VIGNOLO","1328/22","ROBAGLIO ALEJANDRA MABEL","AMENAZAS",NA,NA,2022-09-16
"OMA","Nogoyá","VIGNOLO","1449/22","SANCHEZ MARIA SOLEDAD","DENUNCIA",NA,NA,2022-09-30
"OMA","Nogoyá","VIGNOLO","1290/22","TABACHI LUCIA MARISOL MALVINA","DENUNCIA",NA,NA,2022-09-21
"OMA","Nogoyá","VIGNOLO","1378/22","TABORDA VANESA PAOLA","DENUNCIA",NA,NA,2022-09-30
"OMA","Nogoyá","VIGNOLO","1400/22","VIGLIANO SUSANA BEATRIZ","DENUNCIA",NA,NA,2022-09-30
"OMA","Nogoyá","VIGNOLO","1382/22","ZARAGOZA ANDREA VANESA - SÁNCHEZ ROSA ISABEL","DENUNCIAS",NA,NA,2022-09-21
"OMA","Tala","VESPA","1519","ARELLANO EDGAR EMILIANO","SU DENUNCIA",NA,NA,2022-09-23
"OMA","Tala","VESPA","1513","BONAZZOLA JORGE BENJAMIN","SU DENUNCIA",NA,NA,2022-09-23
"OMA","Tala","VESPA","1507","BRUNS GOMEZ JOSE MARIA","SU DENUNCIA",NA,NA,2022-09-20
"OMA","Tala","VESPA","1512","C/ ESPINOSA SANTAMARIA CAMILO ELIAS","LESIONES GRAVES",NA,NA,2022-09-20
"OMA","Tala","VESPA","1518","C/ SANCHEZ JAVIER ENRIQUE","DAÑO",NA,NA,2022-09-23
"OMA","Tala","VESPA","1504","DE LOS SANTOS VIGO CLARISSE","SU DENUNCIA",NA,NA,2022-09-06
"OMA","Tala","VESPA","1511","DIAZ JULIA RAQUEL","SU DENUNCIA",NA,NA,2022-09-20
"OMA","Tala","VESPA","1520","GIMENEZ MARCELO JONATAN","SU DENUNCIA",NA,NA,2022-09-23
"OMA","Tala","VESPA","1521","JUSTET ESTELLA MARIS","SU DENUNCIA",NA,NA,2022-09-23
"OMA","Tala","VESPA","1509","LOPEZ ALBANO MARTIN, ZAPPALA SERGIO ALEJANDRO, GIACHELO JONATAN GONZALO","ESTAFA",NA,NA,2022-09-20
"OMA","Tala","VESPA","1517","MANFREDI JUAN CRUZ","SU DENUNCIA",NA,NA,2022-09-23
"OMA","Tala","VESPA","1505","MOTTA LIDIA ESTER","SU DENUNCIA",NA,NA,2022-09-06
"OMA","Tala","VESPA","1514","ORBEZ MANUEL","SU DENUNCIA",NA,NA,2022-09-23
"OMA","Tala","VESPA","1506","RAMIREZ MIGUEL ANGEL","SU DENUNCIA",NA,NA,2022-09-20
"OMA","Tala","VESPA","1516","RODRIGUEZ DORA PATRICIA","SU DENUNCIA",NA,NA,2022-09-23
"OMA","Tala","VESPA","1515","RODRIGUEZ PAOLA VALERIA","SU DENUNCIA",NA,NA,2022-09-23
"OMA","Tala","VESPA","1510","RUDY GIOVANETTI LUCIANO NICOLAS","SU DENUNCIA",NA,NA,2022-09-20
"OMA","Tala","VESPA","1508","SIGALES JUAN MANUEL","SU DENUNCIA",NA,NA,2022-09-20
"OMA","Uruguay","POETTO","4780/22","ALLOIS, GABRIELA","SU DENUNCIA",NA,NA,2022-09-13
"OMA","Uruguay","POETTO","5149/22","ANDRE, DAIANA PAULA; ODIARD, MARGARITA ESTER","SU DENUNCIA",NA,NA,2022-09-08
"OMA","Uruguay","POETTO","4491/22","ANDRE, GRISELDA CARMEN","SU DENUNCIA",NA,NA,2022-09-13
"OMA","Uruguay","POETTO","4798/22","ARANDA, ADELINA NEMESIA","SU DENUNCIA",NA,NA,2022-09-13
"OMA","Uruguay","POETTO","4336/22","BERNASCONI, MARIA MILAGROS","AMENAZAS",NA,NA,2022-09-13
"OMA","Uruguay","POETTO","5414/22","CAFFA, CARLOS MIGUEL","ESTAFA",NA,NA,2022-09-20
"OMA","Uruguay","POETTO","6608/21","CORONEL, SOFÍA","DAÑOS",NA,NA,2022-09-08
"OMA","Uruguay","POETTO","5021/22","CURUCHET, NICOLAS LAUREANO","AMENAZAS",NA,NA,2022-09-20
"OMA","Uruguay","POETTO","4026/22","DE OFICIO (CACERES, JOAQUIN URIEL)","LESIONES",NA,NA,2022-09-20
"OMA","Uruguay","POETTO","4093/22","DIAZ, GABRIELA","SU DENUNCIA",NA,NA,2022-09-13
"OMA","Uruguay","POETTO","5014/22","ESQUIVO, CLAUDIA DANIELA","AMENAZAS",NA,NA,2022-09-20
"OMA","Uruguay","POETTO","2306/22","FABRE, MIRIAM SOLEDAD","AMENAZAS",NA,NA,2022-09-13
"OMA","Uruguay","POETTO","5139/22","FLORES RODRIGUEZ, CLAUDIA","SU DENUNCIA",NA,NA,2022-09-08
"OMA","Uruguay","POETTO","4813/22","FLORES, KAREN BARBARA","INFRACCION A LA LEY 9.198",NA,NA,2022-09-13
"OMA","Uruguay","POETTO","4975/22","FRANCHESQUE, MARIA ISABEL","AMENAZAS",NA,NA,2022-09-13
"OMA","Uruguay","POETTO","4765/22","FRANCHINA, ELIANA MARLENE; FABRE, NESTOR FABIAN","LESIONES LEVES",NA,NA,2022-09-08
"OMA","Uruguay","POETTO","3376/22","FUENTES, MICAELA DEL CARMEN","LESIONES GRAVES",NA,NA,2022-09-20
"OMA","Uruguay","POETTO","5577/22","GIMENEZ, ALVARO","LESIONES",NA,NA,2022-09-20
"OMA","Uruguay","POETTO","2353/21","LEDERHOS, EMILIANO DARIO JOSE; LISCHINSKY, NORA","LESIONES",NA,NA,2022-09-20
"OMA","Uruguay","POETTO","4751/22","LONDRA, CARLOS EDUARDO","LESIONES",NA,NA,2022-09-13
"OMA","Uruguay","POETTO","5003/22","MACHADO, JUAN GABRIEL","SU DENUNCIA",NA,NA,2022-09-20
"OMA","Uruguay","POETTO","5339/22","MELGAREJO, MONICA","SU DENUNCIA",NA,NA,2022-09-20
"OMA","Uruguay","POETTO","4710/22","MIRO, HUGO JOSE ALEJANDRO","USURPACION",NA,NA,2022-09-20
"OMA","Uruguay","POETTO","5528/22","ORCAJO, MACARENA","SU DENUNCIA",NA,NA,2022-09-20
"OMA","Uruguay","POETTO","2532/22","PAGANI, JOHANA ELIZABETH","DESOBEDIENCIA","NEGRO",NA,2022-09-08
"OMA","Uruguay","POETTO","5130/22","PALAZZOTTI, MARA GABRIELA; URIGH, JÉSICA ANTONELLA","SU DENUNCIA",NA,NA,2022-09-08
"OMA","Uruguay","POETTO","4859/22","PEDROZA, PETRONA DEL CARMEN","SU DENUNCIA",NA,NA,2022-09-13
"OMA","Uruguay","POETTO","5196/22","PUNZI, MARÍA JOSEFINA","SU DENUNCIA",NA,NA,2022-09-01
"OMA","Uruguay","POETTO","4841/22","QUIROGA, CLARIVEL","SU DENUNCIA",NA,NA,2022-09-13
"OMA","Uruguay","POETTO","4753/22","RODRIGUEZ, GISELA PAOLA","INFRACCION A LA LEY Nº 14.346",NA,NA,2022-09-08
"OMA","Uruguay","POETTO","4532/22","RODRIGUEZ, LUCAS EMANUEL","LESIONES GRAVES",NA,NA,2022-09-20
"OMA","Uruguay","POETTO","4994/22","RODRIGUEZ, MIGUEL ANGEL; ROMERO, SANDRA PATRICIA","SU DENUNCIA",NA,NA,2022-09-12
"OMA","Uruguay","POETTO","4535/22","RODRIGUEZ, RODRIGO IVÁN","LESIONES GRAVES",NA,NA,2022-09-20
"OMA","Uruguay","POETTO","4973/22","ROJAS, MARÍA JOSÉ","SU DENUNCIA",NA,NA,2022-09-13
"OMA","Uruguay","POETTO","2058/22","SOLANO, PAOLA YANINA","ESTAFA",NA,NA,2022-09-13
"OMA","Uruguay","POETTO","5080/22","SOTTO, MARIANA GABRIELA; LARRUMBE, MIRTA VERÓNICA","SU DENUNCIA",NA,NA,2022-09-13
"OMA","Uruguay","POETTO","5240/22","WATERLOO, ADOLFO MARIO","LESIONES LEVES",NA,NA,2022-09-20
"OMA","Uruguay","SATTO","4793/22","ALBIAC MIGUEL ANDRES","SU DENUNCIA",NA,NA,2022-09-14
"OMA","Uruguay","SATTO","5362/22","ALLAL JUAN PABLO","IMPEDIMENTO DE CONTACTO",NA,NA,2022-09-30
"OMA","Uruguay","SATTO","2889/22","BENITEZ CLARA ELENA","LESIONES GRAVES",NA,NA,2022-09-22
"OMA","Uruguay","SATTO","5327/22","BENITEZ FRANCISCO JOSE","AMENAZAS",NA,NA,2022-09-30
"OMA","Uruguay","SATTO","4754/22","CHIMENTO SEBASTIAN GABRIEL","SU DENUNCIA",NA,NA,2022-09-14
"OMA","Uruguay","SATTO","4839/22","CLARET DUILIO","LESIONES",NA,NA,2022-09-14
"OMA","Uruguay","SATTO","5237/22","CORAZZINI HECTOR OSCAR - ANSELMINO SEBASTIAN EZEQUIEL","RECIPROCAS",NA,NA,2022-09-30
"OMA","Uruguay","SATTO","4543/22","DE OFICIO POLICIAL","ACTUACIONES DE OFICIO",NA,NA,2022-09-22
"OMA","Uruguay","SATTO","4842/22","DEGANO FEDERICO EUGENIO","LESIONES",NA,NA,2022-09-14
"OMA","Uruguay","SATTO","4454/22","DURE HUGO DANIEL","AMENAZAS",NA,NA,2022-09-22
"OMA","Uruguay","SATTO","5408/22","FELLAY GUSTAVO CRISTIAN","SU DENUNCIA",NA,NA,2022-09-30
"OMA","Uruguay","SATTO","4658/22","GAGGINO ROSA MARIA","USURPACION",NA,NA,2022-09-08
"OMA","Uruguay","SATTO","4965/22","GODOY MARIA DEL CARMEN","LESIONES",NA,NA,2022-09-16
"OMA","Uruguay","SATTO","4848/22","GOMEZ JONATHAN EMANUEL","DAÑO",NA,NA,2022-09-14
"OMA","Uruguay","SATTO","4844/22","HERLEIN EVELYN LUDMILA","LESIONES GRAVES",NA,NA,2022-09-27
"OMA","Uruguay","SATTO","5305/22","LARROSA DARIO RUBEN","LESIONES",NA,NA,2022-09-28
"OMA","Uruguay","SATTO","5527/21","LOMBARDI JUAN IGNACIO - SALINAS CINTIA","LESIONES GRAVES",NA,NA,2022-09-21
"OMA","Uruguay","SATTO","4698/22","LOPEZ EDUARDO MANUEL","SU DENUNCIA",NA,NA,2022-09-27
"OMA","Uruguay","SATTO","4725/22","LOUPIAS AGUSTIN FERNANDO","AMENAZAS",NA,NA,2022-09-08
"OMA","Uruguay","SATTO","5015/22","MANZUR MELINA ELIZABETH","AMENAZAS",NA,NA,2022-09-20
"OMA","Uruguay","SATTO","4938/22","MARTINEZ NESTOR GUSTAVO","AMENAZAS",NA,NA,2022-09-16
"OMA","Uruguay","SATTO","4755/22","MUÑOZ GRACIELA MARIA JOSE","AMENAZAS",NA,NA,2022-09-14
"OMA","Uruguay","SATTO","4999/22","NIZ RAMIRO ALEJANDRO","AMENAZAS",NA,NA,2022-09-20
"OMA","Uruguay","SATTO","5350/22","PEREZ CESAR JAVIER","AMENAZAS",NA,NA,2022-09-30
"OMA","Uruguay","SATTO","5153/22","PINO SANDRA GRACIELA","LESIONES",NA,NA,2022-09-21
"OMA","Uruguay","SATTO","4892/22","RIVERO MILTON ESTEBAN","AMENAZAS",NA,NA,2022-09-16
"OMA","Uruguay","SATTO","4659/22","ROLHAISER ANALIA RAQUEL","SU DENUNCIA",NA,NA,2022-09-19
"OMA","Uruguay","SATTO","4980/22","RUIZ DIAZ RAUL HORACIO","AMENAZAS",NA,NA,2022-09-20
"OMA","Uruguay","SATTO","3967/22","SATTO JORGE DIEGO","USURPACION",NA,NA,2022-09-22
"OMA","Uruguay","SATTO","2619/22","SCHENFELD JORGE RAMON","LESIONES GRAVES",NA,NA,2022-09-08
"OMA","Uruguay","SATTO","5064/22","SILVERO EMILIANO","RESISTENCIA A LA AUTORIDAD",NA,NA,2022-09-21
"OMA","Uruguay","SATTO","5738/20","SUAREZ MARCELO ALEJANDRO","ROBO",NA,NA,2022-09-08
"OMA","Uruguay","SATTO","4918/22","TOLEDO ALEJANDRA CELESTE","SU DENUNCIA",NA,NA,2022-09-16
"OMA","Uruguay","SATTO","1992/22","TRISCA SILVIA IVANA","SU DENUNCIA","Tapón",NA,2022-09-08
"OMA","Uruguay","SATTO","5006/22","VDOVICHENCO ELISA MABEL","VIOLENCIA FAMILIAR",NA,NA,2022-09-20
"OMA","Uruguay","SATTO","4690/22","WASHINGTON MIRTA GRACIELA - KLOSTER LORENA  LUJAN","SU DENUNCIA",NA,NA,2022-09-23
"OMA","Uruguay","SATTO","5299/22","ZARINI MARIA EUGENIA","AMENAZAS",NA,NA,2022-09-12
"OMA","Victoria","REGGIARDO","M2003","ALARCON JORGE DAVID - SU DENUNCIA","AMENAZAS",NA,NA,2022-09-28
"OMA","Victoria","REGGIARDO","M16268","CAMEJO MILTON RODRIGO","LESIONES GRAVES",NA,NA,2022-09-23
"OMA","Victoria","REGGIARDO","20005","ESCOBAR GERMAN NICOLÁS - SU DENUNCIA","AMENAZAS",NA,NA,2022-09-21
"OMA","Victoria","REGGIARDO","M19971","FERREYRA GIULIANA FLORENCIA  -","SU DENUNCIA",NA,NA,2022-09-21
"OMA","Victoria","REGGIARDO","M19704","FERREYRA JESÚS JOSÉ","SU DENUNCIA",NA,NA,2022-09-09
"OMA","Victoria","REGGIARDO","M19490","FERREYRA YANINA PAOLA","SU DENUNCIA",NA,NA,2022-09-09
"OMA","Victoria","REGGIARDO","M20007","FIRPO OSVALDO JUAN CARLOS - SU DENUNCIA","LESIONES LEVES",NA,NA,2022-09-21
"OMA","Victoria","REGGIARDO","M19977","GARCIA CYNTHIA MARICEL - SU DENUNCIA","HURTO",NA,NA,2022-09-14
"OMA","Victoria","REGGIARDO","M20058","LEMARIA ROSA ELBA","SU DENUNCIA",NA,NA,2022-09-29
"OMA","Victoria","REGGIARDO","M19961","MARTINEZ SOFIA ELIZABETH - GAUDENZI DANIEL","SU DENUNCIA",NA,NA,2022-09-21
"OMA","Victoria","REGGIARDO","M15490","MONZON JUAN JOSE","LESIONES GRAVES",NA,NA,2022-09-21
"OMA","Victoria","REGGIARDO","M19697","OCAÑA CARLA MARILYN - MIONIZ VERONICA GABRIELA-VILLALOBA GABIELA BEATRIZ-MIONIZ EDITH JAQUELIN","SU DENUNCIA",NA,NA,2022-09-21
"OMA","Victoria","REGGIARDO","M19833","OTAEGUI CECILIA - SU DENUNCIA","USURPACION",NA,NA,2022-09-05
"OMA","Victoria","REGGIARDO","M16495","PIEDRABUENA  ANGEL OMAR - SU DENUNCIA","DESOBEDIENCIA",NA,NA,2022-09-01
"OMA","Victoria","REGGIARDO","M16496","RUBIN NOELIA CINTIA","SU DENUNCIA",NA,NA,2022-09-01
"OMA","Victoria","REGGIARDO","M15858","SANCHEZ MELINA AZUL - SU DENUNCIA","ESTAFA",NA,NA,2022-09-19
"OMA","Villaguay","BONIFACINO","22944M","AMARILLO ELEANA RITA MARINA","SU DENUNCIA",NA,NA,2022-09-21
"OMA","Villaguay","BONIFACINO","23198M","APHALO LAURA MARIELA","SU DENUNCIA",NA,NA,2022-09-21
"OMA","Villaguay","BONIFACINO","22951M","BAGLIONE CARLOS CEFERINO","SU DENUNCIA",NA,NA,2022-09-21
"OMA","Villaguay","BONIFACINO","22516M","BARRETO ANDREA GISELA","SU DENUNCIA",NA,NA,2022-09-21
"OMA","Villaguay","BONIFACINO","23262M","BENITEZ RAMON EMILIO","SU DENUNCIA",NA,NA,2022-09-26
"OMA","Villaguay","BONIFACINO","22943M","BRAVO ANTONELLA YAMILA","SU DENUNCIA",NA,NA,2022-09-21
"OMA","Villaguay","BONIFACINO","23183M","BRAVO TERESA ZULEMA","SU DENUNCIA",NA,NA,2022-09-26
"OMA","Villaguay","BONIFACINO","23133M","CANO ABIGAIL BERENICE","SU DENUNCIA",NA,NA,2022-09-21
"OMA","Villaguay","BONIFACINO","23083M","CANO BERENICE ABIGAIL-CORONEL GIANINAMARIANA","SU DENUNCIA",NA,NA,2022-09-21
"OMA","Villaguay","BONIFACINO","23255M","CARABAJAL JUAN MANUEL","SU DENUNCIA",NA,NA,2022-09-26
"OMA","Villaguay","BONIFACINO","19181M","CASANOVAS MARIA EUGENIA","SU DENUNCIA",NA,NA,2022-09-21
"OMA","Villaguay","BONIFACINO","20994M","CASTAÑO LUCIA OLGA BEATRIZ","SU DENUNCIA",NA,NA,2022-09-21
"OMA","Villaguay","BONIFACINO","19425M","DE OFICIO POLICIAL","ACTUACIONES PARA ESTABLECER FORMAS Y CIRCUNSTANCIAS",NA,NA,2022-09-26
"OMA","Villaguay","BONIFACINO","23218M","DEYME ALD0 MARCELO","DENUNCIA",NA,NA,2022-09-26
"OMA","Villaguay","BONIFACINO","23158M","DIAZ AGUSTIN EXEQUIEL","ROBO",NA,NA,2022-09-21
"OMA","Villaguay","BONIFACINO","23051M","DIAZ AGUSTIN EZEQUIEL","ROBO",NA,NA,2022-09-21
"OMA","Villaguay","BONIFACINO","23125M","DIAZ LAURA ALEJANDRA","SU DENUNCIA",NA,NA,2022-09-21
"OMA","Villaguay","BONIFACINO","23156M","DUARTE CESAR JULIAN","LESIONES LEVES",NA,NA,2022-09-21
"OMA","Villaguay","BONIFACINO","23181M","ESTIGARRIBIA VIRGINIA NOELIA","SU DENUNCIA",NA,NA,2022-09-21
"OMA","Villaguay","BONIFACINO","23227M","GAMARRA MATIAS","SU DENUNCIA",NA,NA,2022-09-21
"OMA","Villaguay","BONIFACINO","23159M","GARAY LEONEL ABRHAM","RECEPTACION SOSPECHOSA DE BIENES",NA,NA,2022-09-21
"OMA","Villaguay","BONIFACINO","23134M","GARCIA EMMANUEL-GIMENEZ ADELINA FLORENCIA","SU DENUNCIA",NA,NA,2022-09-21
"OMA","Villaguay","BONIFACINO","23210M","GIMENEZ GIMENA SOLEDAD","SU DENUNCIA",NA,NA,2022-09-21
"OMA","Villaguay","BONIFACINO","20521M","GONZÁLEZ JESUS ALBERTO","ROBO AGRAVADO",NA,NA,2022-09-26
"OMA","Villaguay","BONIFACINO","20146M","GOTZ DAVID","HURTO",NA,NA,2022-09-21
"OMA","Villaguay","BONIFACINO","19997M","HERNANDEZ JOSE ANIBAL","SU DENUNCIA",NA,NA,2022-09-21
"OMA","Villaguay","BONIFACINO","23130M","LABRADOR SILVIA SOLEDAD","SU DENUNCIA",NA,NA,2022-09-21
"OMA","Villaguay","BONIFACINO","23131M","LALANDA LUIS ARIEL","HURTO",NA,NA,2022-09-21
"OMA","Villaguay","BONIFACINO","23098M","LARREA ADRIANA SUSANA","SU DENUNCIA",NA,NA,2022-09-21
"OMA","Villaguay","BONIFACINO","16680M","LLAMA GISELA ESTEFANIA-RAMIREZ GONZALO","LESIONES GRAVES",NA,NA,2022-09-26
"OMA","Villaguay","BONIFACINO","22770M","LOPEZ GUSTAVO ENRIQUE","ROBO",NA,NA,2022-09-21
"OMA","Villaguay","BONIFACINO","23136M","LOSANTO EMMANUEL MATIAS AGUSTIN-CLAPIER FLAVIA ALINA","SU DENUNCIA",NA,NA,2022-09-21
"OMA","Villaguay","BONIFACINO","23107M","MANAVELLA ELISA NOELIA","SU DENUNCIA",NA,NA,2022-09-26
"OMA","Villaguay","BONIFACINO","20446M","MIGUELES FLORENCIA MARIA JOSE","SU DENUNCIA",NA,NA,2022-09-21
"OMA","Villaguay","BONIFACINO","20473M","MOREYRA PABLO CESAR","SU DENUNCIA",NA,NA,2022-09-21
"OMA","Villaguay","BONIFACINO","23071M","PEREYRA MAILEN","SU DENUNCIA",NA,NA,2022-09-21
"OMA","Villaguay","BONIFACINO","20088M","PEREZ BELTRAN RAMON","SU DENUNCIA",NA,NA,2022-09-21
"OMA","Villaguay","BONIFACINO","22347M","PICIO JUAN FRANCISCO","SU DENUNCIA",NA,NA,2022-09-21
"OMA","Villaguay","BONIFACINO","23231M","REDRUELLO ESTEBAN NAHUEL","SU DENUNCIA",NA,NA,2022-09-26
"OMA","Villaguay","BONIFACINO","22494M","RIOS JESICA MARIA","ESTAFA",NA,NA,2022-09-21
"OMA","Villaguay","BONIFACINO","22928M","RODRIGUEZ JESICA YANINA","SU DENUNCIA",NA,NA,2022-09-26
"OMA","Villaguay","BONIFACINO","23268M","ROMERO ADRIANA SILVIA","SU DENUNCIA",NA,NA,2022-09-26
"OMA","Villaguay","BONIFACINO","18765M","ROMERO MANUEL JONATHAN","SU DENUNCIA",NA,NA,2022-09-26
"OMA","Villaguay","BONIFACINO","21087M","RUHL JULIO DAVID","SU DENUNCIA",NA,NA,2022-09-21
"OMA","Villaguay","BONIFACINO","23111M","SANTOMIL AGUSTIN MARIA","SU DENUNCIA",NA,NA,2022-09-21
"OMA","Villaguay","BONIFACINO","22707M","SERVIN LEANDRO EXEQUIEL","HURTO",NA,NA,2022-09-21
"OMA","Villaguay","BONIFACINO","22538M","SHUERMAN PAOLA ALEJANDRA","SU DENUNCIA",NA,NA,2022-09-26
"OMA","Villaguay","BONIFACINO","23209M","SOSA ALEJANDRO JAVIER","SU DENUNCIA",NA,NA,2022-09-21
"OMA","Villaguay","BONIFACINO","23082M","VELAZQUEZ ALEJANDRA MANUELA","SU DENUNCIA",NA,NA,2022-09-21
"OMA","Villaguay","BONIFACINO","23250M","VILLALBA OLGA MARIA","SU DENUNCIA",NA,NA,2022-09-26
